<?xml version="1.0" encoding="UTF-8" standalone="no"?>
<!-- Created with Inkscape (http://www.inkscape.org/) -->

<svg
   version="1.1"
   id="svg14430"
   width="2560"
   height="2169.3333"
   viewBox="0 0 2560 2169.3333"
   sodipodi:docname="logos-globo.svg"
   inkscape:version="1.2.2 (b0a8486541, 2022-12-01)"
   xmlns:inkscape="http://www.inkscape.org/namespaces/inkscape"
   xmlns:sodipodi="http://sodipodi.sourceforge.net/DTD/sodipodi-0.dtd"
   xmlns="http://www.w3.org/2000/svg"
   xmlns:svg="http://www.w3.org/2000/svg">
  <defs
     id="defs14434">
    <clipPath
       clipPathUnits="userSpaceOnUse"
       id="clipPath14446">
      <path
         d="M 0,1627 H 1920 V 0 H 0 Z"
         id="path14444" />
    </clipPath>
    <linearGradient
       x1="0"
       y1="0"
       x2="1"
       y2="0"
       gradientUnits="userSpaceOnUse"
       gradientTransform="matrix(956.44464,-1550.1,-1550.1,-956.44464,772.55011,1405.7384)"
       spreadMethod="pad"
       id="linearGradient14488">
      <stop
         style="stop-opacity:1;stop-color:#ffe12b"
         offset="0"
         id="stop14476" />
      <stop
         style="stop-opacity:1;stop-color:#ffe12b"
         offset="0.00024555"
         id="stop14478" />
      <stop
         style="stop-opacity:1;stop-color:#ffa500"
         offset="0.182145"
         id="stop14480" />
      <stop
         style="stop-opacity:1;stop-color:#ff3132"
         offset="0.576214"
         id="stop14482" />
      <stop
         style="stop-opacity:1;stop-color:#ff158b"
         offset="0.890484"
         id="stop14484" />
      <stop
         style="stop-opacity:1;stop-color:#ff158b"
         offset="1"
         id="stop14486" />
    </linearGradient>
    <linearGradient
       x1="0"
       y1="0"
       x2="1"
       y2="0"
       gradientUnits="userSpaceOnUse"
       gradientTransform="matrix(956.44464,-1550.1,-1550.1,-956.44464,772.36621,1405.6249)"
       spreadMethod="pad"
       id="linearGradient14516">
      <stop
         style="stop-opacity:1;stop-color:#ffe12b"
         offset="0"
         id="stop14504" />
      <stop
         style="stop-opacity:1;stop-color:#ffe12b"
         offset="0.00024555"
         id="stop14506" />
      <stop
         style="stop-opacity:1;stop-color:#ffa500"
         offset="0.182145"
         id="stop14508" />
      <stop
         style="stop-opacity:1;stop-color:#ff3132"
         offset="0.576214"
         id="stop14510" />
      <stop
         style="stop-opacity:1;stop-color:#ff158b"
         offset="0.890484"
         id="stop14512" />
      <stop
         style="stop-opacity:1;stop-color:#ff158b"
         offset="1"
         id="stop14514" />
    </linearGradient>
    <linearGradient
       x1="0"
       y1="0"
       x2="1"
       y2="0"
       gradientUnits="userSpaceOnUse"
       gradientTransform="matrix(956.44464,-1550.1,-1550.1,-956.44464,435.36069,1197.6853)"
       spreadMethod="pad"
       id="linearGradient14544">
      <stop
         style="stop-opacity:1;stop-color:#ffe12b"
         offset="0"
         id="stop14532" />
      <stop
         style="stop-opacity:1;stop-color:#ffe12b"
         offset="0.00024555"
         id="stop14534" />
      <stop
         style="stop-opacity:1;stop-color:#ffa500"
         offset="0.182145"
         id="stop14536" />
      <stop
         style="stop-opacity:1;stop-color:#ff3132"
         offset="0.576214"
         id="stop14538" />
      <stop
         style="stop-opacity:1;stop-color:#ff158b"
         offset="0.890484"
         id="stop14540" />
      <stop
         style="stop-opacity:1;stop-color:#ff158b"
         offset="1"
         id="stop14542" />
    </linearGradient>
    <linearGradient
       x1="0"
       y1="0"
       x2="1"
       y2="0"
       gradientUnits="userSpaceOnUse"
       gradientTransform="matrix(1280.7563,-1907.3925,-1907.3925,-1280.7563,763.92627,1393.9312)"
       spreadMethod="pad"
       id="linearGradient14574">
      <stop
         style="stop-opacity:1;stop-color:#00b7ff"
         offset="0"
         id="stop14564" />
      <stop
         style="stop-opacity:1;stop-color:#00c36d"
         offset="0.295973"
         id="stop14566" />
      <stop
         style="stop-opacity:1;stop-color:#ffe12b"
         offset="0.676472"
         id="stop14568" />
      <stop
         style="stop-opacity:1;stop-color:#ffa500"
         offset="0.998086"
         id="stop14570" />
      <stop
         style="stop-opacity:1;stop-color:#ffa500"
         offset="1"
         id="stop14572" />
    </linearGradient>
    <linearGradient
       x1="0"
       y1="0"
       x2="1"
       y2="0"
       gradientUnits="userSpaceOnUse"
       gradientTransform="matrix(1280.7563,-1907.3925,-1907.3925,-1280.7563,763.75958,1393.8192)"
       spreadMethod="pad"
       id="linearGradient14600">
      <stop
         style="stop-opacity:1;stop-color:#00b7ff"
         offset="0"
         id="stop14590" />
      <stop
         style="stop-opacity:1;stop-color:#00c36d"
         offset="0.295973"
         id="stop14592" />
      <stop
         style="stop-opacity:1;stop-color:#ffe12b"
         offset="0.676472"
         id="stop14594" />
      <stop
         style="stop-opacity:1;stop-color:#ffa500"
         offset="0.998086"
         id="stop14596" />
      <stop
         style="stop-opacity:1;stop-color:#ffa500"
         offset="1"
         id="stop14598" />
    </linearGradient>
    <linearGradient
       x1="0"
       y1="0"
       x2="1"
       y2="0"
       gradientUnits="userSpaceOnUse"
       gradientTransform="matrix(1280.7563,-1907.3925,-1907.3925,-1280.7563,415.29565,1159.8363)"
       spreadMethod="pad"
       id="linearGradient14626">
      <stop
         style="stop-opacity:1;stop-color:#00b7ff"
         offset="0"
         id="stop14616" />
      <stop
         style="stop-opacity:1;stop-color:#00c36d"
         offset="0.295973"
         id="stop14618" />
      <stop
         style="stop-opacity:1;stop-color:#ffe12b"
         offset="0.676472"
         id="stop14620" />
      <stop
         style="stop-opacity:1;stop-color:#ffa500"
         offset="0.998086"
         id="stop14622" />
      <stop
         style="stop-opacity:1;stop-color:#ffa500"
         offset="1"
         id="stop14624" />
    </linearGradient>
    <linearGradient
       x1="0"
       y1="0"
       x2="1"
       y2="0"
       gradientUnits="userSpaceOnUse"
       gradientTransform="matrix(1132.1677,-1509.5569,-1509.5569,-1132.1677,638.30743,1530.8289)"
       spreadMethod="pad"
       id="linearGradient14656">
      <stop
         style="stop-opacity:1;stop-color:#8028ff"
         offset="0"
         id="stop14646" />
      <stop
         style="stop-opacity:1;stop-color:#0031ff"
         offset="0.346106"
         id="stop14648" />
      <stop
         style="stop-opacity:1;stop-color:#00b7ff"
         offset="0.587872"
         id="stop14650" />
      <stop
         style="stop-opacity:1;stop-color:#00c36d"
         offset="0.99928"
         id="stop14652" />
      <stop
         style="stop-opacity:1;stop-color:#00c36d"
         offset="1"
         id="stop14654" />
    </linearGradient>
    <linearGradient
       x1="0"
       y1="0"
       x2="1"
       y2="0"
       gradientUnits="userSpaceOnUse"
       gradientTransform="matrix(1132.1677,-1509.5569,-1509.5569,-1132.1677,638.16357,1530.7209)"
       spreadMethod="pad"
       id="linearGradient14682">
      <stop
         style="stop-opacity:1;stop-color:#8028ff"
         offset="0"
         id="stop14672" />
      <stop
         style="stop-opacity:1;stop-color:#0031ff"
         offset="0.346106"
         id="stop14674" />
      <stop
         style="stop-opacity:1;stop-color:#00b7ff"
         offset="0.587872"
         id="stop14676" />
      <stop
         style="stop-opacity:1;stop-color:#00c36d"
         offset="0.99928"
         id="stop14678" />
      <stop
         style="stop-opacity:1;stop-color:#00c36d"
         offset="1"
         id="stop14680" />
    </linearGradient>
    <linearGradient
       x1="0"
       y1="0"
       x2="1"
       y2="0"
       gradientUnits="userSpaceOnUse"
       gradientTransform="matrix(1132.1677,-1509.5569,-1509.5569,-1132.1677,277.54047,1260.2535)"
       spreadMethod="pad"
       id="linearGradient14708">
      <stop
         style="stop-opacity:1;stop-color:#8028ff"
         offset="0"
         id="stop14698" />
      <stop
         style="stop-opacity:1;stop-color:#0031ff"
         offset="0.346106"
         id="stop14700" />
      <stop
         style="stop-opacity:1;stop-color:#00b7ff"
         offset="0.587872"
         id="stop14702" />
      <stop
         style="stop-opacity:1;stop-color:#00c36d"
         offset="0.99928"
         id="stop14704" />
      <stop
         style="stop-opacity:1;stop-color:#00c36d"
         offset="1"
         id="stop14706" />
    </linearGradient>
    <linearGradient
       x1="0"
       y1="0"
       x2="1"
       y2="0"
       gradientUnits="userSpaceOnUse"
       gradientTransform="matrix(956.44464,-1528.1128,-1528.1128,-956.44464,597.26794,1681.475)"
       spreadMethod="pad"
       id="linearGradient14740">
      <stop
         style="stop-opacity:1;stop-color:#ffa500"
         offset="0"
         id="stop14728" />
      <stop
         style="stop-opacity:1;stop-color:#ff3132"
         offset="0.338787"
         id="stop14730" />
      <stop
         style="stop-opacity:1;stop-color:#ff158b"
         offset="0.648878"
         id="stop14732" />
      <stop
         style="stop-opacity:1;stop-color:#8028ff"
         offset="0.93136002"
         id="stop14734" />
      <stop
         style="stop-opacity:1;stop-color:#8028ff"
         offset="0.99928"
         id="stop14736" />
      <stop
         style="stop-opacity:1;stop-color:#8028ff"
         offset="1"
         id="stop14738" />
    </linearGradient>
    <linearGradient
       x1="0"
       y1="0"
       x2="1"
       y2="0"
       gradientUnits="userSpaceOnUse"
       gradientTransform="matrix(956.44464,-1528.1128,-1528.1128,-956.44464,597.08691,1681.3617)"
       spreadMethod="pad"
       id="linearGradient14768">
      <stop
         style="stop-opacity:1;stop-color:#ffa500"
         offset="0"
         id="stop14756" />
      <stop
         style="stop-opacity:1;stop-color:#ff3132"
         offset="0.338787"
         id="stop14758" />
      <stop
         style="stop-opacity:1;stop-color:#ff158b"
         offset="0.648878"
         id="stop14760" />
      <stop
         style="stop-opacity:1;stop-color:#8028ff"
         offset="0.93136002"
         id="stop14762" />
      <stop
         style="stop-opacity:1;stop-color:#8028ff"
         offset="0.99928"
         id="stop14764" />
      <stop
         style="stop-opacity:1;stop-color:#8028ff"
         offset="1"
         id="stop14766" />
    </linearGradient>
    <linearGradient
       x1="0"
       y1="0"
       x2="1"
       y2="0"
       gradientUnits="userSpaceOnUse"
       gradientTransform="matrix(956.44464,-1528.1128,-1528.1128,-956.44464,258.0304,1469.1464)"
       spreadMethod="pad"
       id="linearGradient14796">
      <stop
         style="stop-opacity:1;stop-color:#ffa500"
         offset="0"
         id="stop14784" />
      <stop
         style="stop-opacity:1;stop-color:#ff3132"
         offset="0.338787"
         id="stop14786" />
      <stop
         style="stop-opacity:1;stop-color:#ff158b"
         offset="0.648878"
         id="stop14788" />
      <stop
         style="stop-opacity:1;stop-color:#8028ff"
         offset="0.93136002"
         id="stop14790" />
      <stop
         style="stop-opacity:1;stop-color:#8028ff"
         offset="0.99928"
         id="stop14792" />
      <stop
         style="stop-opacity:1;stop-color:#8028ff"
         offset="1"
         id="stop14794" />
    </linearGradient>
    <clipPath
       clipPathUnits="userSpaceOnUse"
       id="clipPath14810">
      <path
         d="M 0,1627 H 1920 V 0 H 0 Z"
         id="path14808" />
    </clipPath>
    <clipPath
       clipPathUnits="userSpaceOnUse"
       id="clipPath14834">
      <path
         d="M 0,1627 H 3209 V 0 H 0 Z"
         id="path14832" />
    </clipPath>
    <linearGradient
       x1="0"
       y1="0"
       x2="1"
       y2="0"
       gradientUnits="userSpaceOnUse"
       gradientTransform="matrix(2560.5325,-721.52466,-721.52466,-2560.5325,223.59985,957.28705)"
       spreadMethod="pad"
       id="linearGradient14874">
      <stop
         style="stop-opacity:1;stop-color:#03b4fc"
         offset="0"
         id="stop14864" />
      <stop
         style="stop-opacity:1;stop-color:#03b4fc"
         offset="0.00000025"
         id="stop14866" />
      <stop
         style="stop-opacity:1;stop-color:#07c364"
         offset="0.522168"
         id="stop14868" />
      <stop
         style="stop-opacity:1;stop-color:#fcdc01"
         offset="1"
         id="stop14870" />
      <stop
         style="stop-opacity:1;stop-color:#fcdc01"
         offset="1"
         id="stop14872" />
    </linearGradient>
    <linearGradient
       x1="0"
       y1="0"
       x2="1"
       y2="0"
       gradientUnits="userSpaceOnUse"
       gradientTransform="matrix(2560.5325,-721.52466,-721.52466,-2560.5325,223.5977,957.27942)"
       spreadMethod="pad"
       id="linearGradient14900">
      <stop
         style="stop-opacity:1;stop-color:#03b4fc"
         offset="0"
         id="stop14890" />
      <stop
         style="stop-opacity:1;stop-color:#03b4fc"
         offset="0.00000025"
         id="stop14892" />
      <stop
         style="stop-opacity:1;stop-color:#07c364"
         offset="0.522168"
         id="stop14894" />
      <stop
         style="stop-opacity:1;stop-color:#fcdc01"
         offset="1"
         id="stop14896" />
      <stop
         style="stop-opacity:1;stop-color:#fcdc01"
         offset="1"
         id="stop14898" />
    </linearGradient>
    <linearGradient
       x1="0"
       y1="0"
       x2="1"
       y2="0"
       gradientUnits="userSpaceOnUse"
       gradientTransform="matrix(2560.5325,-721.52466,-721.52466,-2560.5325,298.15768,1221.8765)"
       spreadMethod="pad"
       id="linearGradient14926">
      <stop
         style="stop-opacity:1;stop-color:#03b4fc"
         offset="0"
         id="stop14916" />
      <stop
         style="stop-opacity:1;stop-color:#03b4fc"
         offset="0.00000025"
         id="stop14918" />
      <stop
         style="stop-opacity:1;stop-color:#07c364"
         offset="0.522168"
         id="stop14920" />
      <stop
         style="stop-opacity:1;stop-color:#fcdc01"
         offset="1"
         id="stop14922" />
      <stop
         style="stop-opacity:1;stop-color:#fcdc01"
         offset="1"
         id="stop14924" />
    </linearGradient>
    <linearGradient
       x1="0"
       y1="0"
       x2="1"
       y2="0"
       gradientUnits="userSpaceOnUse"
       gradientTransform="matrix(2428.5464,-703.92645,-703.92645,-2428.5464,408.72125,907.74609)"
       spreadMethod="pad"
       id="linearGradient14952">
      <stop
         style="stop-opacity:1;stop-color:#8b00fc"
         offset="0"
         id="stop14946" />
      <stop
         style="stop-opacity:1;stop-color:#0420fc"
         offset="0.522168"
         id="stop14948" />
      <stop
         style="stop-opacity:1;stop-color:#03b4fc"
         offset="1"
         id="stop14950" />
    </linearGradient>
    <linearGradient
       x1="0"
       y1="0"
       x2="1"
       y2="0"
       gradientUnits="userSpaceOnUse"
       gradientTransform="matrix(2428.5464,-703.92645,-703.92645,-2428.5464,408.71887,907.73791)"
       spreadMethod="pad"
       id="linearGradient14974">
      <stop
         style="stop-opacity:1;stop-color:#8b00fc"
         offset="0"
         id="stop14968" />
      <stop
         style="stop-opacity:1;stop-color:#0420fc"
         offset="0.522168"
         id="stop14970" />
      <stop
         style="stop-opacity:1;stop-color:#03b4fc"
         offset="1"
         id="stop14972" />
    </linearGradient>
    <linearGradient
       x1="0"
       y1="0"
       x2="1"
       y2="0"
       gradientUnits="userSpaceOnUse"
       gradientTransform="matrix(2428.5464,-703.92645,-703.92645,-2428.5464,487.78226,1180.5066)"
       spreadMethod="pad"
       id="linearGradient14996">
      <stop
         style="stop-opacity:1;stop-color:#8b00fc"
         offset="0"
         id="stop14990" />
      <stop
         style="stop-opacity:1;stop-color:#0420fc"
         offset="0.522168"
         id="stop14992" />
      <stop
         style="stop-opacity:1;stop-color:#03b4fc"
         offset="1"
         id="stop14994" />
    </linearGradient>
    <linearGradient
       x1="0"
       y1="0"
       x2="1"
       y2="0"
       gradientUnits="userSpaceOnUse"
       gradientTransform="matrix(2806.9067,-695.12732,-695.12732,-2806.9067,207.01653,943.9726)"
       spreadMethod="pad"
       id="linearGradient15026">
      <stop
         style="stop-opacity:1;stop-color:#ffa500"
         offset="0"
         id="stop15016" />
      <stop
         style="stop-opacity:1;stop-color:#ff3132"
         offset="0.298134"
         id="stop15018" />
      <stop
         style="stop-opacity:1;stop-color:#ff158b"
         offset="0.659212"
         id="stop15020" />
      <stop
         style="stop-opacity:1;stop-color:#8028ff"
         offset="0.99928"
         id="stop15022" />
      <stop
         style="stop-opacity:1;stop-color:#8028ff"
         offset="1"
         id="stop15024" />
    </linearGradient>
    <linearGradient
       x1="0"
       y1="0"
       x2="1"
       y2="0"
       gradientUnits="userSpaceOnUse"
       gradientTransform="matrix(2806.9067,-695.12732,-695.12732,-2806.9067,207.01515,943.96704)"
       spreadMethod="pad"
       id="linearGradient15052">
      <stop
         style="stop-opacity:1;stop-color:#ffa500"
         offset="0"
         id="stop15042" />
      <stop
         style="stop-opacity:1;stop-color:#ff3132"
         offset="0.298134"
         id="stop15044" />
      <stop
         style="stop-opacity:1;stop-color:#ff158b"
         offset="0.659212"
         id="stop15046" />
      <stop
         style="stop-opacity:1;stop-color:#8028ff"
         offset="0.99928"
         id="stop15048" />
      <stop
         style="stop-opacity:1;stop-color:#8028ff"
         offset="1"
         id="stop15050" />
    </linearGradient>
    <linearGradient
       x1="0"
       y1="0"
       x2="1"
       y2="0"
       gradientUnits="userSpaceOnUse"
       gradientTransform="matrix(2806.9067,-695.12732,-695.12732,-2806.9067,264.86475,1177.5623)"
       spreadMethod="pad"
       id="linearGradient15078">
      <stop
         style="stop-opacity:1;stop-color:#ffa500"
         offset="0"
         id="stop15068" />
      <stop
         style="stop-opacity:1;stop-color:#ff3132"
         offset="0.298134"
         id="stop15070" />
      <stop
         style="stop-opacity:1;stop-color:#ff158b"
         offset="0.659212"
         id="stop15072" />
      <stop
         style="stop-opacity:1;stop-color:#8028ff"
         offset="0.99928"
         id="stop15074" />
      <stop
         style="stop-opacity:1;stop-color:#8028ff"
         offset="1"
         id="stop15076" />
    </linearGradient>
    <linearGradient
       x1="0"
       y1="0"
       x2="1"
       y2="0"
       gradientUnits="userSpaceOnUse"
       gradientTransform="matrix(3114.8745,-747.92181,-747.92181,-3114.8745,355.87015,904.26031)"
       spreadMethod="pad"
       id="linearGradient15110">
      <stop
         style="stop-opacity:1;stop-color:#ffe12b"
         offset="0"
         id="stop15098" />
      <stop
         style="stop-opacity:1;stop-color:#ffe12b"
         offset="0.00024555"
         id="stop15100" />
      <stop
         style="stop-opacity:1;stop-color:#ffa500"
         offset="0.297659"
         id="stop15102" />
      <stop
         style="stop-opacity:1;stop-color:#ff3132"
         offset="0.658246"
         id="stop15104" />
      <stop
         style="stop-opacity:1;stop-color:#ff158b"
         offset="0.99928"
         id="stop15106" />
      <stop
         style="stop-opacity:1;stop-color:#ff158b"
         offset="1"
         id="stop15108" />
    </linearGradient>
    <linearGradient
       x1="0"
       y1="0"
       x2="1"
       y2="0"
       gradientUnits="userSpaceOnUse"
       gradientTransform="matrix(3114.8745,-747.92181,-747.92181,-3114.8745,355.8689,904.25513)"
       spreadMethod="pad"
       id="linearGradient15138">
      <stop
         style="stop-opacity:1;stop-color:#ffe12b"
         offset="0"
         id="stop15126" />
      <stop
         style="stop-opacity:1;stop-color:#ffe12b"
         offset="0.00024555"
         id="stop15128" />
      <stop
         style="stop-opacity:1;stop-color:#ffa500"
         offset="0.297659"
         id="stop15130" />
      <stop
         style="stop-opacity:1;stop-color:#ff3132"
         offset="0.658246"
         id="stop15132" />
      <stop
         style="stop-opacity:1;stop-color:#ff158b"
         offset="0.99928"
         id="stop15134" />
      <stop
         style="stop-opacity:1;stop-color:#ff158b"
         offset="1"
         id="stop15136" />
    </linearGradient>
    <linearGradient
       x1="0"
       y1="0"
       x2="1"
       y2="0"
       gradientUnits="userSpaceOnUse"
       gradientTransform="matrix(3114.8745,-747.92181,-747.92181,-3114.8745,410.4603,1131.6122)"
       spreadMethod="pad"
       id="linearGradient15166">
      <stop
         style="stop-opacity:1;stop-color:#ffe12b"
         offset="0"
         id="stop15154" />
      <stop
         style="stop-opacity:1;stop-color:#ffe12b"
         offset="0.00024555"
         id="stop15156" />
      <stop
         style="stop-opacity:1;stop-color:#ffa500"
         offset="0.297659"
         id="stop15158" />
      <stop
         style="stop-opacity:1;stop-color:#ff3132"
         offset="0.658246"
         id="stop15160" />
      <stop
         style="stop-opacity:1;stop-color:#ff158b"
         offset="0.99928"
         id="stop15162" />
      <stop
         style="stop-opacity:1;stop-color:#ff158b"
         offset="1"
         id="stop15164" />
    </linearGradient>
    <clipPath
       clipPathUnits="userSpaceOnUse"
       id="clipPath15180">
      <path
         d="M 0,1627 H 3209 V 0 H 0 Z"
         id="path15178" />
    </clipPath>
  </defs>
  <sodipodi:namedview
     id="namedview14432"
     pagecolor="#ffffff"
     bordercolor="#000000"
     borderopacity="0.25"
     inkscape:showpageshadow="2"
     inkscape:pageopacity="0.0"
     inkscape:pagecheckerboard="0"
     inkscape:deskcolor="#d1d1d1"
     showgrid="false"
     inkscape:zoom="0.099339281"
     inkscape:cx="11480.856"
     inkscape:cy="1087.1832"
     inkscape:window-width="1440"
     inkscape:window-height="733"
     inkscape:window-x="0"
     inkscape:window-y="0"
     inkscape:window-maximized="1"
     inkscape:current-layer="g14632">
    <inkscape:page
       x="0"
       y="0"
       id="page14436"
       width="2560"
       height="2169.3333" />
    <inkscape:page
       x="2580"
       y="0"
       id="page14460"
       width="2560"
       height="2169.3333" />
    <inkscape:page
       x="5160"
       y="0"
       id="page14548"
       width="2560"
       height="2169.3333" />
    <inkscape:page
       x="7740"
       y="0"
       id="page14630"
       width="2560"
       height="2169.3333" />
    <inkscape:page
       x="10320"
       y="0"
       id="page14712"
       width="2560"
       height="2169.3333" />
    <inkscape:page
       x="12900"
       y="0"
       id="page14800"
       width="2560"
       height="2169.3333" />
    <inkscape:page
       x="15480"
       y="0"
       id="page14824"
       width="4278.6667"
       height="2169.3333" />
    <inkscape:page
       x="19778.667"
       y="0"
       id="page14848"
       width="4278.6667"
       height="2169.3333" />
    <inkscape:page
       x="24077.333"
       y="0"
       id="page14930"
       width="4278.6667"
       height="2169.3333" />
    <inkscape:page
       x="28376"
       y="0"
       id="page15000"
       width="4278.6667"
       height="2169.3333" />
    <inkscape:page
       x="32674.667"
       y="0"
       id="page15082"
       width="4278.6667"
       height="2169.3333" />
    <inkscape:page
       x="36973.333"
       y="0"
       id="page15170"
       width="4278.6667"
       height="2169.3333" />
  </sodipodi:namedview>
  <g
     id="g14438"
     inkscape:groupmode="layer"
     inkscape:label="Page 1"
     transform="matrix(1.3333333,0,0,-1.3333333,0,2169.3333)">
    <g
       id="g14440">
      <g
         id="g14442"
         clip-path="url(#clipPath14446)">
        <g
           id="g14448"
           transform="translate(1198.1157,937.313)">
          <path
             d="m 0,0 c -76.225,-8.392 -158.744,-10.49 -238.465,-10.49 -79.722,0 -162.241,2.098 -239.165,10.49 -21.679,2.098 -32.868,7.692 -35.665,30.77 -4.196,44.056 -4.196,88.813 -4.196,134.267 0,44.755 0,89.512 4.196,133.568 2.797,23.078 13.986,28.673 35.665,30.771 76.923,8.391 159.443,10.488 239.164,10.488 79.721,0 162.24,-2.097 238.465,-10.489 22.379,-2.097 33.568,-7.691 36.365,-30.769 3.496,-44.057 3.496,-88.814 3.496,-133.569 0,-45.454 0,-90.21 -3.497,-134.268 C 33.567,7.692 22.378,2.098 0,0 m -238.465,513.995 c -192.311,0 -348.957,-156.647 -348.957,-348.957 0,-193.011 156.646,-349.656 348.957,-349.656 192.311,0 349.656,156.645 349.656,349.656 0,192.31 -157.345,348.957 -349.656,348.957"
             style="fill:#dfe5e8;fill-opacity:1;fill-rule:nonzero;stroke:none"
             id="path14450" />
        </g>
        <g
           id="g14452"
           transform="translate(818.3892,1102.3511)">
          <path
             d="m 0,0 c 0,76.924 61.54,141.26 141.261,141.26 79.722,0 141.261,-64.336 141.261,-141.26 0,-77.624 -61.539,-141.961 -141.261,-141.961 C 61.54,-141.961 0,-77.624 0,0"
             style="fill:#dfe5e8;fill-opacity:1;fill-rule:nonzero;stroke:none"
             id="path14454" />
        </g>
        <g
           id="g14456"
           transform="translate(644.8228,681.2715)">
          <path
             d="m 0,0 c -17.069,7.651 -28.84,0 -28.84,-18.834 v -352.552 c 0,-18.834 11.771,-26.486 28.84,-18.834 l 22.365,10.006 c 14.126,6.474 20.6,15.891 20.6,31.193 V -41.2 c 0,15.303 -6.474,24.72 -20.6,31.194 z m 533.83,-110.063 c -28.251,0 -55.914,-12.359 -74.16,-31.193 V -16.48 c 0,8.828 -5.297,14.126 -14.125,14.126 h -43.554 c -8.829,0 -14.126,-5.298 -14.126,-14.126 v -357.26 c 0,-8.829 5.297,-14.126 14.126,-14.126 h 39.434 c 8.828,0 14.125,5.297 14.125,14.126 v 15.303 c 17.069,-19.423 48.851,-34.137 80.046,-34.137 68.862,0 128.307,62.387 128.307,141.256 0,80.045 -60.034,141.255 -130.073,141.255 m -653.309,-4.708 c -8.829,0 -14.126,-5.297 -14.126,-14.125 v -15.303 c -15.891,19.423 -45.32,34.136 -74.748,34.136 -71.805,0 -133.605,-61.21 -133.605,-141.255 0,-80.045 58.269,-135.371 131.839,-135.371 32.96,0 58.268,15.303 72.983,31.194 -0.589,-55.914 -30.017,-81.222 -80.634,-81.222 -27.074,0 -52.382,8.239 -81.811,27.074 -7.651,5.297 -16.48,3.532 -20.6,-4.709 l -17.656,-34.725 c -4.121,-8.24 -2.944,-15.891 5.296,-21.188 36.492,-23.543 79.457,-35.314 116.537,-35.314 97.113,0 150.673,52.382 150.673,173.038 v 203.645 c 0,8.828 -5.297,14.125 -14.126,14.125 z m 334.894,4.708 c -75.925,0 -139.49,-59.445 -139.49,-141.255 0,-81.811 62.388,-141.256 139.49,-141.256 75.925,0 139.491,59.445 139.491,141.256 0,81.81 -62.388,141.255 -139.491,141.255 m 617.407,0 c -75.926,0 -139.49,-59.445 -139.49,-141.255 0,-81.811 62.388,-141.256 139.49,-141.256 75.925,0 139.49,59.445 139.49,141.256 0,81.81 -62.388,141.255 -139.49,141.255 M -203.645,-323.124 c -37.079,0 -68.273,29.429 -68.273,72.394 0,43.554 31.194,72.394 68.273,72.394 37.081,0 67.686,-28.84 67.686,-72.394 0,-42.965 -30.605,-72.394 -67.686,-72.394 m 419.06,-0.588 c -37.668,0 -68.273,30.605 -68.273,72.394 0,41.788 30.605,72.393 68.273,72.393 37.668,0 68.274,-30.605 68.274,-72.393 0,-41.789 -30.606,-72.394 -68.274,-72.394 m 310.175,0 c -36.491,0 -67.097,28.84 -67.097,72.394 0,42.965 30.606,72.393 67.097,72.393 36.491,0 67.097,-29.428 67.097,-72.393 0,-43.554 -30.606,-72.394 -67.097,-72.394 m 307.232,0 c -37.668,0 -68.274,30.605 -68.274,72.394 0,41.788 30.606,72.393 68.274,72.393 37.668,0 68.274,-30.605 68.274,-72.393 0,-41.789 -30.606,-72.394 -68.274,-72.394"
             style="fill:#dfe5e8;fill-opacity:1;fill-rule:nonzero;stroke:none"
             id="path14458" />
        </g>
      </g>
    </g>
  </g>
  <g
     id="g14462"
     inkscape:groupmode="layer"
     inkscape:label="Page 2"
     transform="matrix(1.3333333,0,0,-1.3333333,2580,2169.3333)">
    <g
       id="g14464">
      <g
         id="g14466">
        <g
           id="g14472">
          <g
             id="g14474">
            <path
               d="m 610.693,1102.351 c 0,-193.011 156.646,-349.656 348.957,-349.656 v 0 c 192.311,0 349.657,156.645 349.657,349.656 v 0 c 0,192.31 -157.346,348.957 -349.657,348.957 v 0 c -192.311,0 -348.957,-156.647 -348.957,-348.957 M 720.485,937.313 c -21.678,2.098 -32.867,7.692 -35.665,30.77 v 0 c -4.195,44.056 -4.195,88.812 -4.195,134.267 v 0 c 0,44.756 0,89.512 4.195,133.568 v 0 c 2.798,23.078 13.987,28.673 35.665,30.772 v 0 c 76.924,8.389 159.444,10.487 239.164,10.487 v 0 c 79.721,0 162.242,-2.098 238.465,-10.489 v 0 c 22.38,-2.097 33.569,-7.692 36.366,-30.768 v 0 c 3.495,-44.058 3.495,-88.814 3.495,-133.57 v 0 c 0,-45.455 0,-90.21 -3.496,-134.268 v 0 c -2.796,-23.077 -13.985,-28.671 -36.363,-30.769 v 0 c -76.225,-8.391 -158.744,-10.49 -238.466,-10.49 v 0 c -79.721,0 -162.24,2.099 -239.165,10.49"
               style="fill:url(#linearGradient14488);stroke:none"
               id="path14490" />
          </g>
        </g>
      </g>
    </g>
    <g
       id="g14492">
      <g
         id="g14494">
        <g
           id="g14500">
          <g
             id="g14502">
            <path
               d="m 818.389,1102.351 c 0,-77.624 61.54,-141.961 141.261,-141.961 v 0 c 79.722,0 141.261,64.337 141.261,141.961 v 0 c 0,76.923 -61.539,141.26 -141.261,141.26 v 0 c -79.721,0 -141.261,-64.337 -141.261,-141.26"
               style="fill:url(#linearGradient14516);stroke:none"
               id="path14518" />
          </g>
        </g>
      </g>
    </g>
    <g
       id="g14520">
      <g
         id="g14522">
        <g
           id="g14528">
          <g
             id="g14530">
            <path
               d="M 615.982,662.437 V 309.885 c 0,-18.834 11.772,-26.485 28.841,-18.834 v 0 l 22.365,10.006 c 14.125,6.474 20.599,15.891 20.599,31.194 v 0 307.82 c 0,15.304 -6.474,24.72 -20.599,31.194 v 0 l -22.365,10.006 c -4.421,1.982 -8.488,2.937 -12.085,2.937 v 0 c -10.294,10e-4 -16.756,-7.814 -16.756,-21.771 m 430.831,16.48 c -8.829,0 -14.125,-5.298 -14.125,-14.126 v 0 -357.26 c 0,-8.828 5.296,-14.126 14.125,-14.126 v 0 h 39.435 c 8.828,0 14.125,5.298 14.125,14.126 v 0 15.303 c 17.069,-19.423 48.851,-34.137 80.045,-34.137 v 0 c 68.863,0 128.308,62.388 128.308,141.256 v 0 c 0,80.045 -60.034,141.256 -130.073,141.256 v 0 c -28.251,0 -55.915,-12.36 -74.16,-31.194 v 0 124.776 c 0,8.828 -5.297,14.126 -14.125,14.126 v 0 z m 56.503,-248.964 c 0,42.965 30.606,72.394 67.096,72.394 v 0 c 36.492,0 67.097,-29.429 67.097,-72.394 v 0 c 0,-43.553 -30.605,-72.394 -67.097,-72.394 v 0 c -36.49,0 -67.096,28.841 -67.096,72.394 m 234.838,0 c 0,-81.811 62.388,-141.256 139.49,-141.256 v 0 c 75.925,0 139.49,59.445 139.49,141.256 v 0 c 0,81.81 -62.387,141.256 -139.49,141.256 v 0 c -75.925,0 -139.49,-59.446 -139.49,-141.256 m 71.217,0 c 0,41.788 30.606,72.394 68.273,72.394 v 0 c 37.67,0 68.275,-30.606 68.275,-72.394 v 0 c 0,-41.788 -30.605,-72.394 -68.275,-72.394 v 0 c -37.667,0 -68.273,30.606 -68.273,72.394 m -688.623,0 c 0,-81.811 62.388,-141.256 139.49,-141.256 v 0 c 75.925,0 139.49,59.445 139.49,141.256 v 0 c 0,81.81 -62.388,141.256 -139.49,141.256 v 0 c -75.925,0 -139.49,-59.446 -139.49,-141.256 m 71.216,0 c 0,41.788 30.605,72.394 68.274,72.394 v 0 c 37.669,0 68.274,-30.606 68.274,-72.394 v 0 c 0,-41.788 -30.605,-72.394 -68.274,-72.394 v 0 c -37.669,0 -68.274,30.606 -68.274,72.394 m -489.1,0 c 0,-80.045 58.269,-135.37 131.84,-135.37 v 0 c 32.959,0 58.268,15.302 72.982,31.194 v 0 c -0.588,-55.914 -30.016,-81.223 -80.633,-81.223 v 0 c -27.074,0 -52.383,8.24 -81.811,27.074 v 0 c -7.651,5.298 -16.48,3.532 -20.6,-4.708 v 0 l -17.657,-34.725 c -4.121,-8.241 -2.943,-15.892 5.297,-21.189 v 0 c 36.491,-23.542 79.456,-35.313 116.536,-35.313 v 0 c 97.114,0 150.674,52.381 150.674,173.038 v 0 203.644 c 0,8.828 -5.297,14.125 -14.126,14.125 v 0 h -40.022 c -8.83,0 -14.126,-5.297 -14.126,-14.125 v 0 -15.303 c -15.891,19.423 -45.32,34.137 -74.749,34.137 v 0 c -71.804,0 -133.605,-61.211 -133.605,-141.256 m 70.04,0.588 c 0,43.554 31.194,72.394 68.274,72.394 v 0 c 37.08,0 67.686,-28.84 67.686,-72.394 v 0 c 0,-42.965 -30.606,-72.393 -67.686,-72.393 v 0 c -37.08,0 -68.274,29.428 -68.274,72.393"
               style="fill:url(#linearGradient14544);stroke:none"
               id="path14546" />
          </g>
        </g>
      </g>
    </g>
  </g>
  <g
     id="g14550"
     inkscape:groupmode="layer"
     inkscape:label="Page 3"
     transform="matrix(1.3333333,0,0,-1.3333333,5160,2169.3333)">
    <g
       id="g14552">
      <g
         id="g14554">
        <g
           id="g14560">
          <g
             id="g14562">
            <path
               d="m 610.693,1102.351 c 0,-193.011 156.646,-349.656 348.957,-349.656 v 0 c 192.311,0 349.657,156.645 349.657,349.656 v 0 c 0,192.31 -157.346,348.957 -349.657,348.957 v 0 c -192.311,0 -348.957,-156.647 -348.957,-348.957 M 720.485,937.313 c -21.678,2.098 -32.868,7.692 -35.665,30.77 v 0 c -4.195,44.056 -4.195,88.812 -4.195,134.267 v 0 c 0,44.756 0,89.512 4.195,133.568 v 0 c 2.797,23.078 13.987,28.673 35.665,30.772 v 0 c 76.924,8.389 159.444,10.487 239.164,10.487 v 0 c 79.722,0 162.241,-2.098 238.465,-10.489 v 0 c 22.379,-2.097 33.568,-7.692 36.366,-30.768 v 0 c 3.495,-44.058 3.495,-88.814 3.495,-133.57 v 0 c 0,-45.455 0,-90.21 -3.496,-134.268 v 0 c -2.797,-23.077 -13.986,-28.671 -36.364,-30.769 v 0 c -76.224,-8.391 -158.743,-10.49 -238.465,-10.49 v 0 c -79.721,0 -162.24,2.099 -239.165,10.49"
               style="fill:url(#linearGradient14574);stroke:none"
               id="path14576" />
          </g>
        </g>
      </g>
    </g>
    <g
       id="g14578">
      <g
         id="g14580">
        <g
           id="g14586">
          <g
             id="g14588">
            <path
               d="m 818.39,1102.351 c 0,-77.624 61.539,-141.961 141.26,-141.961 v 0 c 79.722,0 141.261,64.337 141.261,141.961 v 0 c 0,76.923 -61.539,141.26 -141.261,141.26 v 0 c -79.721,0 -141.26,-64.337 -141.26,-141.26"
               style="fill:url(#linearGradient14600);stroke:none"
               id="path14602" />
          </g>
        </g>
      </g>
    </g>
    <g
       id="g14604">
      <g
         id="g14606">
        <g
           id="g14612">
          <g
             id="g14614">
            <path
               d="M 615.982,662.437 V 309.885 c 0,-18.834 11.772,-26.485 28.84,-18.834 v 0 l 22.367,10.006 c 14.124,6.474 20.599,15.891 20.599,31.194 v 0 307.82 c 0,15.304 -6.475,24.72 -20.599,31.194 v 0 l -22.367,10.006 c -4.42,1.982 -8.488,2.937 -12.085,2.937 v 0 c -10.293,10e-4 -16.755,-7.814 -16.755,-21.771 m 430.831,16.48 c -8.828,0 -14.125,-5.298 -14.125,-14.126 v 0 -357.26 c 0,-8.828 5.297,-14.126 14.125,-14.126 v 0 h 39.435 c 8.828,0 14.125,5.298 14.125,14.126 v 0 15.303 c 17.069,-19.423 48.851,-34.137 80.044,-34.137 v 0 c 68.863,0 128.309,62.388 128.309,141.256 v 0 c 0,80.045 -60.034,141.256 -130.073,141.256 v 0 c -28.251,0 -55.914,-12.36 -74.16,-31.194 v 0 124.776 c 0,8.828 -5.297,14.126 -14.126,14.126 v 0 z m 56.503,-248.964 c 0,42.965 30.606,72.394 67.097,72.394 v 0 c 36.491,0 67.097,-29.429 67.097,-72.394 v 0 c 0,-43.553 -30.606,-72.394 -67.097,-72.394 v 0 c -36.491,0 -67.097,28.841 -67.097,72.394 m 234.838,0 c 0,-81.811 62.388,-141.256 139.49,-141.256 v 0 c 75.925,0 139.49,59.445 139.49,141.256 v 0 c 0,81.81 -62.387,141.256 -139.49,141.256 v 0 c -75.925,0 -139.49,-59.446 -139.49,-141.256 m 71.217,0 c 0,41.788 30.606,72.394 68.273,72.394 v 0 c 37.67,0 68.275,-30.606 68.275,-72.394 v 0 c 0,-41.788 -30.605,-72.394 -68.275,-72.394 v 0 c -37.667,0 -68.273,30.606 -68.273,72.394 m -688.624,0 c 0,-81.811 62.389,-141.256 139.491,-141.256 v 0 c 75.925,0 139.49,59.445 139.49,141.256 v 0 c 0,81.81 -62.388,141.256 -139.49,141.256 v 0 c -75.926,0 -139.491,-59.446 -139.491,-141.256 m 71.217,0 c 0,41.788 30.605,72.394 68.274,72.394 v 0 c 37.669,0 68.274,-30.606 68.274,-72.394 v 0 c 0,-41.788 -30.605,-72.394 -68.274,-72.394 v 0 c -37.669,0 -68.274,30.606 -68.274,72.394 m -489.099,0 c 0,-80.045 58.268,-135.37 131.839,-135.37 v 0 c 32.96,0 58.267,15.302 72.982,31.194 v 0 c -0.588,-55.914 -30.016,-81.223 -80.633,-81.223 v 0 c -27.074,0 -52.383,8.24 -81.811,27.074 v 0 c -7.651,5.298 -16.48,3.532 -20.6,-4.708 v 0 l -17.656,-34.725 c -4.121,-8.241 -2.944,-15.892 5.296,-21.189 v 0 c 36.491,-23.542 79.456,-35.313 116.536,-35.313 v 0 c 97.113,0 150.673,52.381 150.673,173.038 v 0 203.644 c 0,8.828 -5.296,14.125 -14.125,14.125 v 0 h -40.022 c -8.83,0 -14.126,-5.297 -14.126,-14.125 v 0 -15.303 c -15.892,19.423 -45.32,34.137 -74.749,34.137 v 0 c -71.805,0 -133.604,-61.211 -133.604,-141.256 m 70.039,0.588 c 0,43.554 31.194,72.394 68.275,72.394 v 0 c 37.079,0 67.685,-28.84 67.685,-72.394 v 0 c 0,-42.965 -30.606,-72.393 -67.685,-72.393 v 0 c -37.081,0 -68.275,29.428 -68.275,72.393"
               style="fill:url(#linearGradient14626);stroke:none"
               id="path14628" />
          </g>
        </g>
      </g>
    </g>
  </g>
  <g
     id="g14632"
     inkscape:groupmode="layer"
     inkscape:label="Page 4"
     transform="matrix(1.3333333,0,0,-1.3333333,7740,2169.3333)">
    <g
       id="g13675">
      <g
         id="g14634">
        <g
           id="g14636">
          <g
             id="g14642">
            <g
               id="g14644">
              <path
                 d="m 610.693,1102.351 c 0,-193.011 156.646,-349.656 348.957,-349.656 v 0 c 192.311,0 349.657,156.645 349.657,349.656 v 0 c 0,192.31 -157.346,348.957 -349.657,348.957 v 0 c -192.311,0 -348.957,-156.647 -348.957,-348.957 M 720.485,937.313 c -21.678,2.098 -32.867,7.692 -35.664,30.77 v 0 c -4.196,44.056 -4.196,88.812 -4.196,134.267 v 0 c 0,44.756 0,89.512 4.196,133.568 v 0 c 2.797,23.078 13.986,28.673 35.664,30.772 v 0 c 76.924,8.389 159.444,10.487 239.164,10.487 v 0 c 79.721,0 162.242,-2.098 238.465,-10.489 v 0 c 22.38,-2.097 33.569,-7.692 36.366,-30.768 v 0 c 3.495,-44.058 3.495,-88.814 3.495,-133.57 v 0 c 0,-45.455 0,-90.21 -3.496,-134.268 v 0 c -2.796,-23.077 -13.985,-28.671 -36.363,-30.769 v 0 c -76.225,-8.391 -158.744,-10.49 -238.466,-10.49 v 0 c -79.721,0 -162.24,2.099 -239.165,10.49"
                 style="fill:url(#linearGradient14656);stroke:none"
                 id="path14658" />
            </g>
          </g>
        </g>
      </g>
      <g
         id="g14660">
        <g
           id="g14662">
          <g
             id="g14668">
            <g
               id="g14670">
              <path
                 d="m 818.39,1102.351 c 0,-77.624 61.539,-141.961 141.26,-141.961 v 0 c 79.722,0 141.261,64.337 141.261,141.961 v 0 c 0,76.923 -61.539,141.26 -141.261,141.26 v 0 c -79.721,0 -141.26,-64.337 -141.26,-141.26"
                 style="fill:url(#linearGradient14682);stroke:none"
                 id="path14684" />
            </g>
          </g>
        </g>
      </g>
      <g
         id="g14686">
        <g
           id="g14688">
          <g
             id="g14694">
            <g
               id="g14696">
              <path
                 d="M 615.982,662.437 V 309.885 c 0,-18.834 11.772,-26.485 28.84,-18.834 v 0 l 22.366,10.006 c 14.125,6.474 20.599,15.891 20.599,31.194 v 0 307.82 c 0,15.304 -6.474,24.72 -20.599,31.194 v 0 l -22.366,10.006 c -4.42,1.982 -8.488,2.937 -12.085,2.937 v 0 c -10.293,10e-4 -16.755,-7.814 -16.755,-21.771 m 430.831,16.48 c -8.828,0 -14.125,-5.298 -14.125,-14.126 v 0 -357.26 c 0,-8.828 5.297,-14.126 14.125,-14.126 v 0 h 39.435 c 8.828,0 14.125,5.298 14.125,14.126 v 0 15.303 c 17.069,-19.423 48.851,-34.137 80.045,-34.137 v 0 c 68.863,0 128.308,62.388 128.308,141.256 v 0 c 0,80.045 -60.034,141.256 -130.073,141.256 v 0 c -28.251,0 -55.915,-12.36 -74.16,-31.194 v 0 124.776 c 0,8.828 -5.297,14.126 -14.125,14.126 v 0 z m 56.503,-248.964 c 0,42.965 30.606,72.394 67.096,72.394 v 0 c 36.492,0 67.097,-29.429 67.097,-72.394 v 0 c 0,-43.553 -30.605,-72.394 -67.097,-72.394 v 0 c -36.49,0 -67.096,28.841 -67.096,72.394 m 234.838,0 c 0,-81.811 62.388,-141.256 139.49,-141.256 v 0 c 75.926,0 139.491,59.445 139.491,141.256 v 0 c 0,81.81 -62.388,141.256 -139.491,141.256 v 0 c -75.925,0 -139.49,-59.446 -139.49,-141.256 m 71.217,0 c 0,41.788 30.606,72.394 68.273,72.394 v 0 c 37.669,0 68.274,-30.606 68.274,-72.394 v 0 c 0,-41.788 -30.605,-72.394 -68.274,-72.394 v 0 c -37.667,0 -68.273,30.606 -68.273,72.394 m -688.623,0 c 0,-81.811 62.388,-141.256 139.49,-141.256 v 0 c 75.925,0 139.49,59.445 139.49,141.256 v 0 c 0,81.81 -62.388,141.256 -139.49,141.256 v 0 c -75.925,0 -139.49,-59.446 -139.49,-141.256 m 71.216,0 c 0,41.788 30.605,72.394 68.274,72.394 v 0 c 37.669,0 68.274,-30.606 68.274,-72.394 v 0 c 0,-41.788 -30.605,-72.394 -68.274,-72.394 v 0 c -37.669,0 -68.274,30.606 -68.274,72.394 m -489.099,0 c 0,-80.045 58.268,-135.37 131.839,-135.37 v 0 c 32.959,0 58.268,15.302 72.982,31.194 v 0 c -0.588,-55.914 -30.016,-81.223 -80.633,-81.223 v 0 c -27.074,0 -52.383,8.24 -81.811,27.074 v 0 c -7.651,5.298 -16.48,3.532 -20.6,-4.708 v 0 l -17.656,-34.725 c -4.121,-8.241 -2.944,-15.892 5.296,-21.189 v 0 c 36.491,-23.542 79.456,-35.313 116.536,-35.313 v 0 c 97.114,0 150.673,52.381 150.673,173.038 v 0 203.644 c 0,8.828 -5.296,14.125 -14.125,14.125 v 0 h -40.022 c -8.83,0 -14.126,-5.297 -14.126,-14.125 v 0 -15.303 c -15.891,19.423 -45.32,34.137 -74.748,34.137 v 0 c -71.805,0 -133.605,-61.211 -133.605,-141.256 m 70.039,0.588 c 0,43.554 31.194,72.394 68.274,72.394 v 0 c 37.08,0 67.686,-28.84 67.686,-72.394 v 0 c 0,-42.965 -30.606,-72.393 -67.686,-72.393 v 0 c -37.08,0 -68.274,29.428 -68.274,72.393"
                 style="fill:url(#linearGradient14708);stroke:none"
                 id="path14710" />
            </g>
          </g>
        </g>
      </g>
    </g>
  </g>
  <g
     id="g14714"
     inkscape:groupmode="layer"
     inkscape:label="Page 5"
     transform="matrix(1.3333333,0,0,-1.3333333,10320,2169.3333)">
    <g
       id="g14716">
      <g
         id="g14718">
        <g
           id="g14724">
          <g
             id="g14726">
            <path
               d="m 610.693,1102.351 c 0,-193.011 156.646,-349.656 348.957,-349.656 v 0 c 192.311,0 349.657,156.645 349.657,349.656 v 0 c 0,192.31 -157.346,348.957 -349.657,348.957 v 0 c -192.311,0 -348.957,-156.647 -348.957,-348.957 M 720.485,937.313 c -21.678,2.098 -32.867,7.692 -35.665,30.77 v 0 c -4.195,44.056 -4.195,88.812 -4.195,134.267 v 0 c 0,44.756 0,89.512 4.195,133.568 v 0 c 2.798,23.078 13.987,28.673 35.665,30.772 v 0 c 76.924,8.389 159.444,10.487 239.164,10.487 v 0 c 79.721,0 162.242,-2.098 238.465,-10.489 v 0 c 22.38,-2.097 33.569,-7.692 36.366,-30.768 v 0 c 3.495,-44.058 3.495,-88.814 3.495,-133.57 v 0 c 0,-45.455 0,-90.21 -3.496,-134.268 v 0 c -2.796,-23.077 -13.985,-28.671 -36.363,-30.769 v 0 c -76.225,-8.391 -158.744,-10.49 -238.466,-10.49 v 0 c -79.721,0 -162.24,2.099 -239.165,10.49"
               style="fill:url(#linearGradient14740);stroke:none"
               id="path14742" />
          </g>
        </g>
      </g>
    </g>
    <g
       id="g14744">
      <g
         id="g14746">
        <g
           id="g14752">
          <g
             id="g14754">
            <path
               d="m 818.389,1102.351 c 0,-77.624 61.54,-141.961 141.261,-141.961 v 0 c 79.722,0 141.261,64.337 141.261,141.961 v 0 c 0,76.923 -61.539,141.26 -141.261,141.26 v 0 c -79.721,0 -141.261,-64.337 -141.261,-141.26"
               style="fill:url(#linearGradient14768);stroke:none"
               id="path14770" />
          </g>
        </g>
      </g>
    </g>
    <g
       id="g14772">
      <g
         id="g14774">
        <g
           id="g14780">
          <g
             id="g14782">
            <path
               d="M 615.982,662.437 V 309.885 c 0,-18.834 11.772,-26.485 28.841,-18.834 v 0 l 22.365,10.006 c 14.125,6.474 20.599,15.891 20.599,31.194 v 0 307.82 c 0,15.304 -6.474,24.72 -20.599,31.194 v 0 l -22.365,10.006 c -4.421,1.982 -8.488,2.937 -12.085,2.937 v 0 c -10.294,10e-4 -16.756,-7.814 -16.756,-21.771 m 430.831,16.48 c -8.829,0 -14.125,-5.298 -14.125,-14.126 v 0 -357.26 c 0,-8.828 5.296,-14.126 14.125,-14.126 v 0 h 39.435 c 8.828,0 14.125,5.298 14.125,14.126 v 0 15.303 c 17.069,-19.423 48.851,-34.137 80.045,-34.137 v 0 c 68.863,0 128.308,62.388 128.308,141.256 v 0 c 0,80.045 -60.034,141.256 -130.073,141.256 v 0 c -28.251,0 -55.915,-12.36 -74.16,-31.194 v 0 124.776 c 0,8.828 -5.297,14.126 -14.125,14.126 v 0 z m 56.503,-248.964 c 0,42.965 30.606,72.394 67.096,72.394 v 0 c 36.492,0 67.097,-29.429 67.097,-72.394 v 0 c 0,-43.553 -30.605,-72.394 -67.097,-72.394 v 0 c -36.49,0 -67.096,28.841 -67.096,72.394 m 234.838,0 c 0,-81.811 62.388,-141.256 139.49,-141.256 v 0 c 75.926,0 139.491,59.445 139.491,141.256 v 0 c 0,81.81 -62.388,141.256 -139.491,141.256 v 0 c -75.925,0 -139.49,-59.446 -139.49,-141.256 m 71.217,0 c 0,41.788 30.606,72.394 68.273,72.394 v 0 c 37.669,0 68.274,-30.606 68.274,-72.394 v 0 c 0,-41.788 -30.605,-72.394 -68.274,-72.394 v 0 c -37.667,0 -68.273,30.606 -68.273,72.394 m -688.623,0 c 0,-81.811 62.388,-141.256 139.49,-141.256 v 0 c 75.925,0 139.49,59.445 139.49,141.256 v 0 c 0,81.81 -62.388,141.256 -139.49,141.256 v 0 c -75.925,0 -139.49,-59.446 -139.49,-141.256 m 71.216,0 c 0,41.788 30.605,72.394 68.274,72.394 v 0 c 37.669,0 68.274,-30.606 68.274,-72.394 v 0 c 0,-41.788 -30.605,-72.394 -68.274,-72.394 v 0 c -37.669,0 -68.274,30.606 -68.274,72.394 m -489.1,0 c 0,-80.045 58.269,-135.37 131.84,-135.37 v 0 c 32.959,0 58.268,15.302 72.982,31.194 v 0 c -0.588,-55.914 -30.016,-81.223 -80.633,-81.223 v 0 c -27.074,0 -52.383,8.24 -81.811,27.074 v 0 c -7.651,5.298 -16.48,3.532 -20.6,-4.708 v 0 l -17.657,-34.725 c -4.121,-8.241 -2.943,-15.892 5.297,-21.189 v 0 c 36.491,-23.542 79.456,-35.313 116.536,-35.313 v 0 c 97.114,0 150.674,52.381 150.674,173.038 v 0 203.644 c 0,8.828 -5.297,14.125 -14.126,14.125 v 0 h -40.022 c -8.83,0 -14.126,-5.297 -14.126,-14.125 v 0 -15.303 c -15.891,19.423 -45.32,34.137 -74.749,34.137 v 0 c -71.804,0 -133.605,-61.211 -133.605,-141.256 m 70.04,0.588 c 0,43.554 31.194,72.394 68.274,72.394 v 0 c 37.08,0 67.686,-28.84 67.686,-72.394 v 0 c 0,-42.965 -30.606,-72.393 -67.686,-72.393 v 0 c -37.08,0 -68.274,29.428 -68.274,72.393"
               style="fill:url(#linearGradient14796);stroke:none"
               id="path14798" />
          </g>
        </g>
      </g>
    </g>
  </g>
  <g
     id="g14802"
     inkscape:groupmode="layer"
     inkscape:label="Page 6"
     transform="matrix(1.3333333,0,0,-1.3333333,12900,2169.3333)">
    <g
       id="g14804">
      <g
         id="g14806"
         clip-path="url(#clipPath14810)">
        <g
           id="g14812"
           transform="translate(1198.1157,937.313)">
          <path
             d="m 0,0 c -76.225,-8.392 -158.744,-10.49 -238.465,-10.49 -79.722,0 -162.241,2.098 -239.165,10.49 -21.679,2.098 -32.868,7.692 -35.665,30.77 -4.196,44.056 -4.196,88.813 -4.196,134.267 0,44.755 0,89.512 4.196,133.568 2.797,23.079 13.986,28.673 35.665,30.771 76.923,8.391 159.443,10.488 239.164,10.488 79.721,0 162.24,-2.097 238.465,-10.489 22.379,-2.097 33.568,-7.691 36.365,-30.769 3.496,-44.057 3.496,-88.814 3.496,-133.569 0,-45.454 0,-90.21 -3.497,-134.268 C 33.567,7.692 22.378,2.098 0,0 m -238.465,513.995 c -192.311,0 -348.957,-156.647 -348.957,-348.957 0,-193.011 156.646,-349.656 348.957,-349.656 192.311,0 349.656,156.645 349.656,349.656 0,192.31 -157.345,348.957 -349.656,348.957"
             style="fill:#ffffff;fill-opacity:1;fill-rule:nonzero;stroke:none"
             id="path14814" />
        </g>
        <g
           id="g14816"
           transform="translate(818.3892,1102.3511)">
          <path
             d="m 0,0 c 0,76.924 61.54,141.26 141.261,141.26 79.722,0 141.261,-64.336 141.261,-141.26 0,-77.624 -61.539,-141.961 -141.261,-141.961 C 61.54,-141.961 0,-77.624 0,0"
             style="fill:#ffffff;fill-opacity:1;fill-rule:nonzero;stroke:none"
             id="path14818" />
        </g>
        <g
           id="g14820"
           transform="translate(644.8228,681.2715)">
          <path
             d="m 0,0 c -17.069,7.651 -28.84,0 -28.84,-18.834 v -352.552 c 0,-18.834 11.771,-26.486 28.84,-18.834 l 22.365,10.006 c 14.126,6.474 20.6,15.891 20.6,31.193 V -41.2 c 0,15.303 -6.474,24.72 -20.6,31.194 z m 533.83,-110.063 c -28.251,0 -55.914,-12.359 -74.16,-31.193 V -16.48 c 0,8.828 -5.297,14.126 -14.125,14.126 h -43.554 c -8.829,0 -14.126,-5.298 -14.126,-14.126 v -357.26 c 0,-8.829 5.297,-14.126 14.126,-14.126 h 39.434 c 8.828,0 14.125,5.297 14.125,14.126 v 15.303 c 17.069,-19.423 48.851,-34.137 80.046,-34.137 68.862,0 128.307,62.387 128.307,141.256 0,80.045 -60.034,141.255 -130.073,141.255 m -653.309,-4.708 c -8.829,0 -14.126,-5.297 -14.126,-14.125 v -15.303 c -15.891,19.423 -45.32,34.136 -74.748,34.136 -71.805,0 -133.605,-61.21 -133.605,-141.255 0,-80.045 58.269,-135.371 131.839,-135.371 32.96,0 58.268,15.303 72.983,31.194 -0.589,-55.914 -30.017,-81.222 -80.634,-81.222 -27.074,0 -52.382,8.239 -81.811,27.074 -7.651,5.297 -16.48,3.532 -20.6,-4.709 l -17.657,-34.725 c -4.12,-8.24 -2.943,-15.891 5.297,-21.188 36.492,-23.543 79.457,-35.314 116.537,-35.314 97.113,0 150.673,52.382 150.673,173.038 v 203.645 c 0,8.828 -5.297,14.125 -14.126,14.125 z m 334.894,4.708 c -75.925,0 -139.49,-59.445 -139.49,-141.255 0,-81.811 62.388,-141.256 139.49,-141.256 75.925,0 139.491,59.445 139.491,141.256 0,81.81 -62.388,141.255 -139.491,141.255 m 617.407,0 c -75.925,0 -139.49,-59.445 -139.49,-141.255 0,-81.811 62.387,-141.256 139.49,-141.256 75.925,0 139.49,59.445 139.49,141.256 0,81.81 -62.388,141.255 -139.49,141.255 M -203.645,-323.124 c -37.079,0 -68.273,29.429 -68.273,72.394 0,43.554 31.194,72.394 68.273,72.394 37.081,0 67.686,-28.84 67.686,-72.394 0,-42.965 -30.605,-72.394 -67.686,-72.394 m 419.06,-0.588 c -37.668,0 -68.273,30.605 -68.273,72.394 0,41.788 30.605,72.393 68.273,72.393 37.668,0 68.274,-30.605 68.274,-72.393 0,-41.789 -30.606,-72.394 -68.274,-72.394 m 310.175,0 c -36.491,0 -67.097,28.84 -67.097,72.394 0,42.965 30.606,72.393 67.097,72.393 36.491,0 67.097,-29.428 67.097,-72.393 0,-43.554 -30.606,-72.394 -67.097,-72.394 m 307.232,0 c -37.668,0 -68.274,30.605 -68.274,72.394 0,41.788 30.606,72.393 68.274,72.393 37.669,0 68.274,-30.605 68.274,-72.393 0,-41.789 -30.605,-72.394 -68.274,-72.394"
             style="fill:#ffffff;fill-opacity:1;fill-rule:nonzero;stroke:none"
             id="path14822" />
        </g>
      </g>
    </g>
  </g>
  <g
     id="g14826"
     inkscape:groupmode="layer"
     inkscape:label="Page 7"
     transform="matrix(1.3333333,0,0,-1.3333333,15480,2169.3333)">
    <g
       id="g14828">
      <g
         id="g14830"
         clip-path="url(#clipPath14834)">
        <g
           id="g14836"
           transform="translate(973.9758,647.6553)">
          <path
             d="m 0,0 c -76.76,-8.451 -159.859,-10.564 -240.14,-10.564 -80.282,0 -163.381,2.113 -240.846,10.564 -21.83,2.112 -33.098,7.745 -35.915,30.986 -4.225,44.366 -4.225,89.436 -4.225,135.209 0,45.071 0,90.142 4.225,134.507 2.817,23.24 14.085,28.874 35.915,30.988 77.465,8.449 160.564,10.561 240.845,10.561 80.281,0 163.38,-2.112 240.14,-10.563 22.536,-2.112 33.804,-7.746 36.621,-30.985 3.52,-44.366 3.52,-89.437 3.52,-134.508 0,-45.773 0,-90.843 -3.521,-135.211 C 33.803,7.745 22.535,2.112 0,0 m -240.14,517.605 c -193.662,0 -351.408,-157.747 -351.409,-351.408 0,-194.367 157.747,-352.113 351.409,-352.113 193.661,0 352.112,157.746 352.112,352.113 0,193.661 -158.451,351.408 -352.112,351.408"
             style="fill:#dfe5e8;fill-opacity:1;fill-rule:nonzero;stroke:none"
             id="path14838" />
        </g>
        <g
           id="g14840"
           transform="translate(591.5823,813.8525)">
          <path
             d="m 0,0 c 0,77.464 61.972,142.252 142.253,142.252 80.282,0 142.253,-64.788 142.253,-142.252 0,-78.169 -61.971,-142.959 -142.253,-142.959 C 61.972,-142.959 0,-78.169 0,0"
             style="fill:#dfe5e8;fill-opacity:1;fill-rule:nonzero;stroke:none"
             id="path14842" />
        </g>
        <g
           id="g14844"
           transform="translate(1606.6978,1131.5518)">
          <path
             d="m 0,0 c -21.415,9.6 -36.183,0 -36.183,-23.63 v -442.315 c 0,-23.63 14.768,-33.23 36.183,-23.63 l 28.06,12.554 c 17.722,8.122 25.845,19.937 25.845,39.136 v 386.196 c 0,19.198 -8.123,31.013 -25.845,39.135 z m 669.75,-138.086 c -35.445,0 -70.15,-15.507 -93.042,-39.136 v 156.546 c 0,11.076 -6.646,17.722 -17.722,17.722 h -54.643 c -11.076,0 -17.722,-6.646 -17.722,-17.722 v -448.223 c 0,-11.077 6.646,-17.722 17.722,-17.722 h 49.474 c 11.077,0 17.723,6.645 17.723,17.722 v 19.199 c 21.414,-24.368 61.289,-42.828 100.425,-42.828 86.395,0 160.976,78.272 160.976,177.221 0,100.425 -75.319,177.221 -163.191,177.221 m -819.65,-5.907 c -11.077,0 -17.722,-6.646 -17.722,-17.722 v -19.199 c -19.938,24.368 -56.858,42.828 -93.78,42.828 -90.087,0 -167.622,-76.796 -167.622,-177.221 0,-100.425 73.104,-169.838 165.407,-169.838 41.351,0 73.104,19.2 91.564,39.137 -0.738,-70.15 -37.659,-101.902 -101.164,-101.902 -33.967,0 -65.719,10.338 -102.64,33.968 -9.6,6.645 -20.676,4.43 -25.845,-5.909 l -22.153,-43.566 c -5.169,-10.338 -3.692,-19.937 6.646,-26.583 45.782,-29.537 99.687,-44.306 146.208,-44.306 121.839,0 189.036,65.72 189.036,217.097 v 255.494 c 0,11.076 -6.646,17.722 -17.723,17.722 z m 420.163,5.907 c -95.257,0 -175.007,-74.58 -175.007,-177.221 0,-102.64 78.273,-177.221 175.007,-177.221 95.257,0 175.006,74.581 175.006,177.221 0,102.641 -78.273,177.221 -175.006,177.221 m 774.606,0 c -95.257,0 -175.007,-74.58 -175.007,-177.221 0,-102.64 78.273,-177.221 175.007,-177.221 95.256,0 175.006,74.581 175.006,177.221 0,102.641 -78.273,177.221 -175.006,177.221 M -255.494,-405.395 c -46.521,0 -85.657,36.921 -85.657,90.827 0,54.642 39.136,90.826 85.657,90.826 46.52,0 84.918,-36.184 84.918,-90.826 0,-53.906 -38.398,-90.827 -84.918,-90.827 m 525.757,-0.738 c -47.259,0 -85.657,38.398 -85.657,90.826 0,52.428 38.398,90.826 85.657,90.826 47.259,0 85.657,-38.398 85.657,-90.826 0,-52.428 -38.398,-90.826 -85.657,-90.826 m 389.149,0 c -45.783,0 -84.181,36.183 -84.181,90.826 0,53.906 38.398,90.826 84.181,90.826 45.782,0 84.18,-36.92 84.18,-90.826 0,-54.643 -38.398,-90.826 -84.18,-90.826 m 385.457,0 c -47.26,0 -85.658,38.398 -85.658,90.826 0,52.428 38.398,90.826 85.658,90.826 47.259,0 85.657,-38.398 85.657,-90.826 0,-52.428 -38.398,-90.826 -85.657,-90.826"
             style="fill:#dfe5e8;fill-opacity:1;fill-rule:nonzero;stroke:none"
             id="path14846" />
        </g>
      </g>
    </g>
  </g>
  <g
     id="g14850"
     inkscape:groupmode="layer"
     inkscape:label="Page 8"
     transform="matrix(1.3333333,0,0,-1.3333333,19778.667,2169.3333)">
    <g
       id="g14852">
      <g
         id="g14854">
        <g
           id="g14860">
          <g
             id="g14862">
            <path
               d="m 382.427,813.853 c 0,-194.368 157.747,-352.113 351.409,-352.113 v 0 c 193.662,0 352.112,157.745 352.112,352.113 v 0 c 0,193.661 -158.45,351.408 -352.112,351.408 v 0 c -193.662,0 -351.409,-157.747 -351.409,-351.408 M 492.99,647.655 c -21.83,2.113 -33.098,7.746 -35.915,30.986 v 0 c -4.225,44.366 -4.225,89.436 -4.225,135.209 v 0 c 0,45.071 0,90.142 4.225,134.507 v 0 c 2.817,23.241 14.085,28.875 35.915,30.989 v 0 c 77.465,8.448 160.564,10.56 240.845,10.56 v 0 c 80.282,0 163.379,-2.112 240.14,-10.562 v 0 c 22.536,-2.112 33.804,-7.746 36.621,-30.985 v 0 c 3.519,-44.367 3.519,-89.438 3.519,-134.509 v 0 c 0,-45.773 0,-90.843 -3.521,-135.21 v 0 c -2.815,-23.239 -14.083,-28.872 -36.618,-30.985 v 0 c -76.761,-8.451 -159.859,-10.564 -240.14,-10.564 v 0 c -80.282,0 -163.381,2.113 -240.846,10.564"
               style="fill:url(#linearGradient14874);stroke:none"
               id="path14876" />
          </g>
        </g>
      </g>
    </g>
    <g
       id="g14878">
      <g
         id="g14880">
        <g
           id="g14886">
          <g
             id="g14888">
            <path
               d="m 591.582,813.853 c 0,-78.17 61.972,-142.96 142.254,-142.96 v 0 c 80.281,0 142.253,64.79 142.253,142.96 v 0 c 0,77.464 -61.972,142.251 -142.253,142.251 v 0 c -80.282,0 -142.254,-64.787 -142.254,-142.251"
               style="fill:url(#linearGradient14900);stroke:none"
               id="path14902" />
          </g>
        </g>
      </g>
    </g>
    <g
       id="g14904">
      <g
         id="g14906">
        <g
           id="g14912">
          <g
             id="g14914">
            <path
               d="M 1570.515,1107.922 V 665.607 c 0,-23.631 14.768,-33.23 36.183,-23.631 v 0 l 28.06,12.554 c 17.722,8.122 25.845,19.938 25.845,39.137 v 0 386.195 c 0,19.198 -8.123,31.014 -25.845,39.136 v 0 l -28.06,12.554 c -5.546,2.486 -10.649,3.684 -15.162,3.685 v 0 c -12.914,10e-4 -21.021,-9.805 -21.021,-27.315 m 540.526,20.675 c -11.077,0 -17.723,-6.645 -17.723,-17.721 v 0 -448.224 c 0,-11.075 6.646,-17.721 17.723,-17.721 v 0 h 49.475 c 11.076,0 17.722,6.646 17.722,17.721 v 0 19.2 c 21.413,-24.369 61.289,-42.829 100.425,-42.829 v 0 c 86.396,0 160.976,78.272 160.976,177.222 v 0 c 0,100.425 -75.32,177.221 -163.192,177.221 v 0 c -35.444,0 -70.149,-15.507 -93.041,-39.136 v 0 156.546 c 0,11.076 -6.646,17.721 -17.723,17.721 v 0 z m 70.888,-312.352 c 0,53.906 38.398,90.825 84.18,90.825 v 0 c 45.782,0 84.181,-36.919 84.181,-90.825 v 0 c 0,-54.643 -38.399,-90.826 -84.181,-90.826 v 0 c -45.782,0 -84.18,36.183 -84.18,90.826 m 294.632,0 c 0,-102.64 78.272,-177.222 175.005,-177.222 v 0 c 95.257,0 175.006,74.582 175.006,177.222 v 0 c 0,102.641 -78.273,177.221 -175.006,177.221 v 0 c -95.256,0 -175.005,-74.58 -175.005,-177.221 m 89.348,0 c 0,52.428 38.398,90.825 85.657,90.825 v 0 c 47.259,0 85.658,-38.397 85.658,-90.825 v 0 c 0,-52.429 -38.399,-90.826 -85.658,-90.826 v 0 c -47.259,0 -85.657,38.397 -85.657,90.826 m -863.955,0 c 0,-102.64 78.273,-177.222 175.007,-177.222 v 0 c 95.256,0 175.006,74.582 175.006,177.222 v 0 c 0,102.641 -78.273,177.221 -175.006,177.221 v 0 c -95.257,0 -175.007,-74.58 -175.007,-177.221 m 89.349,0 c 0,52.428 38.399,90.825 85.658,90.825 v 0 c 47.259,0 85.656,-38.397 85.656,-90.825 v 0 c 0,-52.429 -38.397,-90.826 -85.656,-90.826 v 0 c -47.259,0 -85.658,38.397 -85.658,90.826 m -613.63,0 c 0,-100.426 73.105,-169.838 165.408,-169.838 v 0 c 41.351,0 73.103,19.2 91.564,39.136 v 0 c -0.738,-70.149 -37.66,-101.901 -101.165,-101.901 v 0 c -33.966,0 -65.718,10.337 -102.64,33.968 v 0 c -9.599,6.645 -20.676,4.43 -25.844,-5.909 v 0 l -22.153,-43.566 c -5.17,-10.338 -3.692,-19.938 6.646,-26.583 v 0 c 45.782,-29.538 99.686,-44.306 146.207,-44.306 v 0 c 121.84,0 189.037,65.72 189.037,217.097 v 0 255.494 c 0,11.076 -6.646,17.721 -17.723,17.721 v 0 h -50.212 c -11.077,0 -17.722,-6.645 -17.722,-17.721 v 0 -19.199 c -19.938,24.368 -56.859,42.828 -93.78,42.828 v 0 c -90.088,0 -167.623,-76.796 -167.623,-177.221 m 87.874,0.738 c 0,54.643 39.135,90.826 85.656,90.826 v 0 c 46.521,0 84.919,-36.183 84.919,-90.826 v 0 c 0,-53.905 -38.398,-90.826 -84.919,-90.826 v 0 c -46.521,0 -85.656,36.921 -85.656,90.826"
               style="fill:url(#linearGradient14926);stroke:none"
               id="path14928" />
          </g>
        </g>
      </g>
    </g>
  </g>
  <g
     id="g14932"
     inkscape:groupmode="layer"
     inkscape:label="Page 9"
     transform="matrix(1.3333333,0,0,-1.3333333,24077.333,2169.3333)">
    <g
       id="g15326">
      <g
         id="g14934">
        <g
           id="g14936">
          <g
             id="g14942">
            <g
               id="g14944">
              <path
                 d="m 382.428,813.853 c 0,-194.368 157.746,-352.113 351.408,-352.113 v 0 c 193.661,0 352.112,157.745 352.112,352.113 v 0 c 0,193.661 -158.451,351.408 -352.112,351.408 v 0 c -193.662,0 -351.408,-157.747 -351.408,-351.408 M 492.99,647.655 c -21.831,2.113 -33.098,7.746 -35.915,30.986 v 0 c -4.226,44.366 -4.226,89.436 -4.226,135.209 v 0 c 0.001,45.071 0.001,90.142 4.226,134.507 v 0 c 2.817,23.241 14.084,28.875 35.915,30.989 v 0 c 77.465,8.448 160.564,10.56 240.845,10.56 v 0 c 80.282,0 163.379,-2.112 240.14,-10.562 v 0 c 22.536,-2.112 33.804,-7.746 36.621,-30.985 v 0 c 3.52,-44.367 3.52,-89.438 3.52,-134.509 v 0 c 0,-45.773 0,-90.843 -3.521,-135.21 v 0 c -2.816,-23.239 -14.084,-28.872 -36.62,-30.985 v 0 C 897.214,639.204 814.117,637.091 733.836,637.091 v 0 c -80.282,0 -163.381,2.113 -240.846,10.564"
                 style="fill:url(#linearGradient14952);stroke:none"
                 id="path14954" />
            </g>
          </g>
        </g>
      </g>
      <g
         id="g14956">
        <g
           id="g14958">
          <g
             id="g14964">
            <g
               id="g14966">
              <path
                 d="m 591.582,813.853 c 0,-78.17 61.972,-142.96 142.253,-142.96 v 0 c 80.282,0 142.254,64.79 142.254,142.96 v 0 c 0,77.464 -61.972,142.251 -142.254,142.251 v 0 c -80.281,0 -142.253,-64.787 -142.253,-142.251"
                 style="fill:url(#linearGradient14974);stroke:none"
                 id="path14976" />
            </g>
          </g>
        </g>
      </g>
      <g
         id="g14978">
        <g
           id="g14980">
          <g
             id="g14986">
            <g
               id="g14988">
              <path
                 d="M 1570.514,1107.922 V 665.607 c 0,-23.631 14.769,-33.23 36.184,-23.631 v 0 l 28.06,12.554 c 17.722,8.122 25.845,19.938 25.845,39.137 v 0 386.195 c 0,19.198 -8.123,31.014 -25.845,39.136 v 0 l -28.06,12.554 c -5.546,2.486 -10.649,3.684 -15.162,3.685 v 0 c -12.915,10e-4 -21.022,-9.805 -21.022,-27.315 m 540.527,20.675 c -11.077,0 -17.723,-6.645 -17.723,-17.721 v 0 -448.224 c 0,-11.075 6.646,-17.721 17.723,-17.721 v 0 h 49.475 c 11.076,0 17.722,6.646 17.722,17.721 v 0 19.2 c 21.413,-24.369 61.289,-42.829 100.425,-42.829 v 0 c 86.396,0 160.976,78.272 160.976,177.222 v 0 c 0,100.425 -75.32,177.221 -163.192,177.221 v 0 c -35.444,0 -70.149,-15.507 -93.041,-39.136 v 0 156.546 c 0,11.076 -6.646,17.721 -17.723,17.721 v 0 z m 70.888,-312.352 c 0,53.906 38.398,90.825 84.18,90.825 v 0 c 45.782,0 84.181,-36.919 84.181,-90.825 v 0 c 0,-54.643 -38.399,-90.826 -84.181,-90.826 v 0 c -45.782,0 -84.18,36.183 -84.18,90.826 m 294.632,0 c 0,-102.64 78.272,-177.222 175.005,-177.222 v 0 c 95.257,0 175.006,74.582 175.006,177.222 v 0 c 0,102.641 -78.273,177.221 -175.006,177.221 v 0 c -95.256,0 -175.005,-74.58 -175.005,-177.221 m 89.348,0 c 0,52.428 38.398,90.825 85.657,90.825 v 0 c 47.259,0 85.658,-38.397 85.658,-90.825 v 0 c 0,-52.429 -38.399,-90.826 -85.658,-90.826 v 0 c -47.259,0 -85.657,38.397 -85.657,90.826 m -863.955,0 c 0,-102.64 78.274,-177.222 175.006,-177.222 v 0 c 95.257,0 175.007,74.582 175.007,177.222 v 0 c 0,102.641 -78.272,177.221 -175.007,177.221 v 0 c -95.256,0 -175.006,-74.58 -175.006,-177.221 m 89.349,0 c 0,52.428 38.398,90.825 85.657,90.825 v 0 c 47.26,0 85.657,-38.397 85.657,-90.825 v 0 c 0,-52.429 -38.397,-90.826 -85.657,-90.826 v 0 c -47.259,0 -85.657,38.397 -85.657,90.826 m -613.63,0 c 0,-100.426 73.106,-169.838 165.408,-169.838 v 0 c 41.351,0 73.103,19.2 91.565,39.136 v 0 c -0.74,-70.149 -37.661,-101.901 -101.165,-101.901 v 0 c -33.967,0 -65.719,10.337 -102.641,33.968 v 0 c -9.599,6.645 -20.676,4.43 -25.844,-5.909 v 0 l -22.153,-43.566 c -5.17,-10.338 -3.693,-19.938 6.646,-26.583 v 0 c 45.782,-29.538 99.686,-44.306 146.207,-44.306 v 0 c 121.84,0 189.036,65.72 189.036,217.097 v 0 255.494 c 0,11.076 -6.645,17.721 -17.722,17.721 v 0 h -50.212 c -11.077,0 -17.723,-6.645 -17.723,-17.721 v 0 -19.199 c -19.936,24.368 -56.859,42.828 -93.779,42.828 v 0 c -90.088,0 -167.623,-76.796 -167.623,-177.221 m 87.873,0.738 c 0,54.643 39.136,90.826 85.657,90.826 v 0 c 46.52,0 84.919,-36.183 84.919,-90.826 v 0 c 0,-53.905 -38.399,-90.826 -84.919,-90.826 v 0 c -46.521,0 -85.657,36.921 -85.657,90.826"
                 style="fill:url(#linearGradient14996);stroke:none"
                 id="path14998" />
            </g>
          </g>
        </g>
      </g>
    </g>
  </g>
  <g
     id="g15002"
     inkscape:groupmode="layer"
     inkscape:label="Page 10"
     transform="matrix(1.3333333,0,0,-1.3333333,28376,2169.3333)">
    <g
       id="g15004">
      <g
         id="g15006">
        <g
           id="g15012">
          <g
             id="g15014">
            <path
               d="m 382.428,813.853 c 0,-194.368 157.746,-352.113 351.408,-352.113 v 0 c 193.661,0 352.112,157.745 352.112,352.113 v 0 c 0,193.661 -158.451,351.408 -352.112,351.408 v 0 c -193.662,0 -351.408,-157.747 -351.408,-351.408 M 492.99,647.655 c -21.831,2.113 -33.098,7.746 -35.915,30.986 v 0 c -4.226,44.366 -4.226,89.436 -4.226,135.209 v 0 c 0.001,45.071 0.001,90.142 4.226,134.507 v 0 c 2.817,23.241 14.084,28.875 35.915,30.989 v 0 c 77.465,8.448 160.564,10.56 240.845,10.56 v 0 c 80.282,0 163.379,-2.112 240.14,-10.562 v 0 c 22.536,-2.112 33.804,-7.746 36.621,-30.985 v 0 c 3.52,-44.367 3.52,-89.438 3.52,-134.509 v 0 c 0,-45.773 0,-90.843 -3.521,-135.21 v 0 c -2.816,-23.239 -14.084,-28.872 -36.62,-30.985 v 0 C 897.214,639.204 814.117,637.091 733.836,637.091 v 0 c -80.282,0 -163.381,2.113 -240.846,10.564"
               style="fill:url(#linearGradient15026);stroke:none"
               id="path15028" />
          </g>
        </g>
      </g>
    </g>
    <g
       id="g15030">
      <g
         id="g15032">
        <g
           id="g15038">
          <g
             id="g15040">
            <path
               d="m 591.582,813.853 c 0,-78.17 61.972,-142.96 142.253,-142.96 v 0 c 80.282,0 142.254,64.79 142.254,142.96 v 0 c 0,77.464 -61.972,142.251 -142.254,142.251 v 0 c -80.281,0 -142.253,-64.787 -142.253,-142.251"
               style="fill:url(#linearGradient15052);stroke:none"
               id="path15054" />
          </g>
        </g>
      </g>
    </g>
    <g
       id="g15056">
      <g
         id="g15058">
        <g
           id="g15064">
          <g
             id="g15066">
            <path
               d="M 1570.514,1107.922 V 665.607 c 0,-23.631 14.769,-33.23 36.184,-23.631 v 0 l 28.06,12.554 c 17.722,8.122 25.845,19.938 25.845,39.137 v 0 386.195 c 0,19.198 -8.123,31.014 -25.845,39.136 v 0 l -28.06,12.554 c -5.546,2.486 -10.649,3.684 -15.162,3.685 v 0 c -12.915,10e-4 -21.022,-9.805 -21.022,-27.315 m 540.527,20.675 c -11.077,0 -17.723,-6.645 -17.723,-17.721 v 0 -448.224 c 0,-11.075 6.646,-17.721 17.723,-17.721 v 0 h 49.475 c 11.076,0 17.722,6.646 17.722,17.721 v 0 19.2 c 21.413,-24.369 61.289,-42.829 100.425,-42.829 v 0 c 86.396,0 160.976,78.272 160.976,177.222 v 0 c 0,100.425 -75.32,177.221 -163.192,177.221 v 0 c -35.444,0 -70.149,-15.507 -93.041,-39.136 v 0 156.546 c 0,11.076 -6.646,17.721 -17.723,17.721 v 0 z m 70.888,-312.352 c 0,53.906 38.398,90.825 84.18,90.825 v 0 c 45.782,0 84.181,-36.919 84.181,-90.825 v 0 c 0,-54.643 -38.399,-90.826 -84.181,-90.826 v 0 c -45.782,0 -84.18,36.183 -84.18,90.826 m 294.632,0 c 0,-102.64 78.272,-177.222 175.005,-177.222 v 0 c 95.257,0 175.006,74.582 175.006,177.222 v 0 c 0,102.641 -78.273,177.221 -175.006,177.221 v 0 c -95.256,0 -175.005,-74.58 -175.005,-177.221 m 89.348,0 c 0,52.428 38.398,90.825 85.657,90.825 v 0 c 47.259,0 85.658,-38.397 85.658,-90.825 v 0 c 0,-52.429 -38.399,-90.826 -85.658,-90.826 v 0 c -47.259,0 -85.657,38.397 -85.657,90.826 m -863.955,0 c 0,-102.64 78.274,-177.222 175.006,-177.222 v 0 c 95.257,0 175.007,74.582 175.007,177.222 v 0 c 0,102.641 -78.272,177.221 -175.007,177.221 v 0 c -95.256,0 -175.006,-74.58 -175.006,-177.221 m 89.349,0 c 0,52.428 38.398,90.825 85.657,90.825 v 0 c 47.26,0 85.657,-38.397 85.657,-90.825 v 0 c 0,-52.429 -38.397,-90.826 -85.657,-90.826 v 0 c -47.259,0 -85.657,38.397 -85.657,90.826 m -613.63,0 c 0,-100.426 73.106,-169.838 165.408,-169.838 v 0 c 41.351,0 73.103,19.2 91.565,39.136 v 0 c -0.74,-70.149 -37.661,-101.901 -101.165,-101.901 v 0 c -33.967,0 -65.719,10.337 -102.641,33.968 v 0 c -9.599,6.645 -20.676,4.43 -25.844,-5.909 v 0 l -22.153,-43.566 c -5.17,-10.338 -3.693,-19.938 6.646,-26.583 v 0 c 45.782,-29.538 99.686,-44.306 146.207,-44.306 v 0 c 121.84,0 189.036,65.72 189.036,217.097 v 0 255.494 c 0,11.076 -6.645,17.721 -17.722,17.721 v 0 h -50.212 c -11.077,0 -17.723,-6.645 -17.723,-17.721 v 0 -19.199 c -19.936,24.368 -56.859,42.828 -93.779,42.828 v 0 c -90.088,0 -167.623,-76.796 -167.623,-177.221 m 87.873,0.738 c 0,54.643 39.136,90.826 85.657,90.826 v 0 c 46.52,0 84.919,-36.183 84.919,-90.826 v 0 c 0,-53.905 -38.399,-90.826 -84.919,-90.826 v 0 c -46.521,0 -85.657,36.921 -85.657,90.826"
               style="fill:url(#linearGradient15078);stroke:none"
               id="path15080" />
          </g>
        </g>
      </g>
    </g>
  </g>
  <g
     id="g15084"
     inkscape:groupmode="layer"
     inkscape:label="Page 11"
     transform="matrix(1.3333333,0,0,-1.3333333,32674.667,2169.3333)">
    <g
       id="g15086">
      <g
         id="g15088">
        <g
           id="g15094">
          <g
             id="g15096">
            <path
               d="m 382.427,813.853 c 0,-194.368 157.747,-352.113 351.409,-352.113 v 0 c 193.662,0 352.112,157.745 352.112,352.113 v 0 c 0,193.661 -158.45,351.408 -352.112,351.408 v 0 c -193.662,0 -351.409,-157.747 -351.409,-351.408 M 492.99,647.655 c -21.831,2.113 -33.098,7.746 -35.915,30.986 v 0 c -4.225,44.366 -4.225,89.436 -4.225,135.209 v 0 c 0,45.071 0,90.142 4.225,134.507 v 0 c 2.817,23.241 14.084,28.875 35.915,30.989 v 0 c 77.465,8.448 160.564,10.56 240.845,10.56 v 0 c 80.281,0 163.379,-2.112 240.14,-10.562 v 0 c 22.536,-2.112 33.804,-7.746 36.621,-30.985 v 0 c 3.519,-44.367 3.519,-89.438 3.519,-134.509 v 0 c 0,-45.773 0,-90.843 -3.52,-135.21 v 0 c -2.816,-23.239 -14.084,-28.872 -36.62,-30.985 v 0 c -76.76,-8.451 -159.858,-10.564 -240.139,-10.564 v 0 c -80.282,0 -163.381,2.113 -240.846,10.564"
               style="fill:url(#linearGradient15110);stroke:none"
               id="path15112" />
          </g>
        </g>
      </g>
    </g>
    <g
       id="g15114">
      <g
         id="g15116">
        <g
           id="g15122">
          <g
             id="g15124">
            <path
               d="m 591.583,813.853 c 0,-78.17 61.971,-142.96 142.253,-142.96 v 0 c 80.281,0 142.253,64.79 142.253,142.96 v 0 c 0,77.464 -61.972,142.251 -142.253,142.251 v 0 c -80.282,0 -142.253,-64.787 -142.253,-142.251"
               style="fill:url(#linearGradient15138);stroke:none"
               id="path15140" />
          </g>
        </g>
      </g>
    </g>
    <g
       id="g15142">
      <g
         id="g15144">
        <g
           id="g15150">
          <g
             id="g15152">
            <path
               d="M 1570.515,1107.922 V 665.607 c 0,-23.631 14.768,-33.23 36.183,-23.631 v 0 l 28.06,12.554 c 17.722,8.122 25.845,19.938 25.845,39.137 v 0 386.195 c 0,19.198 -8.123,31.014 -25.845,39.136 v 0 l -28.06,12.554 c -5.546,2.486 -10.649,3.684 -15.162,3.685 v 0 c -12.914,10e-4 -21.021,-9.805 -21.021,-27.315 m 540.526,20.675 c -11.076,0 -17.723,-6.645 -17.723,-17.721 v 0 -448.224 c 0,-11.075 6.647,-17.721 17.723,-17.721 v 0 h 49.474 c 11.076,0 17.723,6.646 17.723,17.721 v 0 19.2 c 21.413,-24.369 61.289,-42.829 100.424,-42.829 v 0 c 86.396,0 160.977,78.272 160.977,177.222 v 0 c 0,100.425 -75.319,177.221 -163.192,177.221 v 0 c -35.444,0 -70.15,-15.507 -93.041,-39.136 v 0 156.546 c 0,11.076 -6.646,17.721 -17.722,17.721 v 0 z m 70.888,-312.352 c 0,53.906 38.398,90.825 84.18,90.825 v 0 c 45.782,0 84.181,-36.919 84.181,-90.825 v 0 c 0,-54.643 -38.399,-90.826 -84.181,-90.826 v 0 c -45.782,0 -84.18,36.183 -84.18,90.826 m 294.631,0 c 0,-102.64 78.273,-177.222 175.006,-177.222 v 0 c 95.257,0 175.006,74.582 175.006,177.222 v 0 c 0,102.641 -78.273,177.221 -175.006,177.221 v 0 c -95.256,0 -175.006,-74.58 -175.006,-177.221 m 89.349,0 c 0,52.428 38.398,90.825 85.657,90.825 v 0 c 47.259,0 85.658,-38.397 85.658,-90.825 v 0 c 0,-52.429 -38.399,-90.826 -85.658,-90.826 v 0 c -47.259,0 -85.657,38.397 -85.657,90.826 m -863.955,0 c 0,-102.64 78.273,-177.222 175.007,-177.222 v 0 c 95.256,0 175.006,74.582 175.006,177.222 v 0 c 0,102.641 -78.273,177.221 -175.006,177.221 v 0 c -95.257,0 -175.007,-74.58 -175.007,-177.221 m 89.349,0 c 0,52.428 38.399,90.825 85.658,90.825 v 0 c 47.259,0 85.656,-38.397 85.656,-90.825 v 0 c 0,-52.429 -38.397,-90.826 -85.656,-90.826 v 0 c -47.259,0 -85.658,38.397 -85.658,90.826 m -613.63,0 c 0,-100.426 73.105,-169.838 165.408,-169.838 v 0 c 41.351,0 73.103,19.2 91.564,39.136 v 0 c -0.738,-70.149 -37.66,-101.901 -101.165,-101.901 v 0 c -33.966,0 -65.718,10.337 -102.64,33.968 v 0 c -9.599,6.645 -20.676,4.43 -25.844,-5.909 v 0 l -22.153,-43.566 c -5.17,-10.338 -3.692,-19.938 6.646,-26.583 v 0 c 45.782,-29.538 99.686,-44.306 146.207,-44.306 v 0 c 121.84,0 189.037,65.72 189.037,217.097 v 0 255.494 c 0,11.076 -6.646,17.721 -17.723,17.721 v 0 h -50.212 c -11.077,0 -17.722,-6.645 -17.722,-17.721 v 0 -19.199 c -19.938,24.368 -56.859,42.828 -93.78,42.828 v 0 c -90.088,0 -167.623,-76.796 -167.623,-177.221 m 87.874,0.738 c 0,54.643 39.135,90.826 85.656,90.826 v 0 c 46.521,0 84.919,-36.183 84.919,-90.826 v 0 c 0,-53.905 -38.398,-90.826 -84.919,-90.826 v 0 c -46.521,0 -85.656,36.921 -85.656,90.826"
               style="fill:url(#linearGradient15166);stroke:none"
               id="path15168" />
          </g>
        </g>
      </g>
    </g>
  </g>
  <g
     id="g15172"
     inkscape:groupmode="layer"
     inkscape:label="Page 12"
     transform="matrix(1.3333333,0,0,-1.3333333,36973.333,2169.3333)">
    <g
       id="g15174">
      <g
         id="g15176"
         clip-path="url(#clipPath15180)">
        <g
           id="g15182"
           transform="translate(973.9756,647.6553)">
          <path
             d="m 0,0 c -76.761,-8.451 -159.858,-10.564 -240.14,-10.564 -80.282,0 -163.381,2.113 -240.845,10.564 -21.831,2.112 -33.099,7.745 -35.915,30.986 -4.226,44.366 -4.226,89.436 -4.226,135.209 10e-4,45.071 10e-4,90.142 4.226,134.507 2.816,23.24 14.084,28.874 35.915,30.988 77.464,8.449 160.563,10.561 240.844,10.561 80.282,0 163.38,-2.112 240.14,-10.563 22.536,-2.112 33.805,-7.746 36.621,-30.985 3.521,-44.366 3.521,-89.437 3.521,-134.508 0,-45.773 0,-90.843 -3.522,-135.211 C 33.804,7.745 22.535,2.112 0,0 m -240.14,517.605 c -193.662,0 -351.408,-157.747 -351.408,-351.408 0,-194.367 157.746,-352.113 351.408,-352.113 193.661,0 352.113,157.746 352.113,352.113 0,193.661 -158.452,351.408 -352.113,351.408"
             style="fill:#ffffff;fill-opacity:1;fill-rule:nonzero;stroke:none"
             id="path15184" />
        </g>
        <g
           id="g15186"
           transform="translate(591.582,813.8525)">
          <path
             d="m 0,0 c 0,77.464 61.972,142.252 142.253,142.252 80.282,0 142.254,-64.788 142.254,-142.252 0,-78.169 -61.972,-142.959 -142.254,-142.959 C 61.972,-142.959 0,-78.169 0,0"
             style="fill:#ffffff;fill-opacity:1;fill-rule:nonzero;stroke:none"
             id="path15188" />
        </g>
        <g
           id="g15190"
           transform="translate(1606.6982,1131.5518)">
          <path
             d="m 0,0 c -21.415,9.6 -36.184,0 -36.184,-23.63 v -442.315 c 0,-23.63 14.769,-33.23 36.184,-23.63 l 28.06,12.554 c 17.722,8.122 25.844,19.937 25.844,39.136 v 386.196 c 0,19.198 -8.122,31.013 -25.844,39.135 z m 669.749,-138.086 c -35.444,0 -70.149,-15.507 -93.041,-39.136 v 156.546 c 0,11.076 -6.646,17.722 -17.723,17.722 h -54.642 c -11.077,0 -17.723,-6.646 -17.723,-17.722 v -448.223 c 0,-11.077 6.646,-17.722 17.723,-17.722 h 49.474 c 11.077,0 17.722,6.645 17.722,17.722 v 19.199 c 21.414,-24.368 61.289,-42.828 100.426,-42.828 86.395,0 160.975,78.272 160.975,177.221 0,100.425 -75.319,177.221 -163.191,177.221 m -819.649,-5.907 c -11.077,0 -17.723,-6.646 -17.723,-17.722 v -19.199 c -19.937,24.368 -56.858,42.828 -93.779,42.828 -90.088,0 -167.622,-76.796 -167.622,-177.221 0,-100.425 73.104,-169.838 165.407,-169.838 41.351,0 73.103,19.2 91.564,39.137 -0.739,-70.15 -37.66,-101.902 -101.164,-101.902 -33.968,0 -65.72,10.338 -102.641,33.968 -9.599,6.645 -20.676,4.43 -25.844,-5.909 l -22.153,-43.566 c -5.169,-10.338 -3.693,-19.937 6.645,-26.583 45.782,-29.537 99.688,-44.306 146.208,-44.306 121.84,0 189.036,65.72 189.036,217.097 v 255.494 c 0,11.076 -6.645,17.722 -17.722,17.722 z m 420.162,5.907 c -95.256,0 -175.006,-74.58 -175.006,-177.221 0,-102.64 78.273,-177.221 175.006,-177.221 95.257,0 175.007,74.581 175.007,177.221 0,102.641 -78.273,177.221 -175.007,177.221 m 774.606,0 c -95.257,0 -175.006,-74.58 -175.006,-177.221 0,-102.64 78.273,-177.221 175.006,-177.221 95.257,0 175.006,74.581 175.006,177.221 0,102.641 -78.272,177.221 -175.006,177.221 M -255.495,-405.395 c -46.521,0 -85.657,36.921 -85.657,90.827 0,54.642 39.136,90.826 85.657,90.826 46.52,0 84.919,-36.184 84.919,-90.826 0,-53.906 -38.399,-90.827 -84.919,-90.827 m 525.757,-0.738 c -47.259,0 -85.657,38.398 -85.657,90.826 0,52.428 38.398,90.826 85.657,90.826 47.259,0 85.657,-38.398 85.657,-90.826 0,-52.428 -38.398,-90.826 -85.657,-90.826 m 389.149,0 c -45.782,0 -84.18,36.183 -84.18,90.826 0,53.906 38.398,90.826 84.18,90.826 45.782,0 84.181,-36.92 84.181,-90.826 0,-54.643 -38.399,-90.826 -84.181,-90.826 m 385.457,0 c -47.259,0 -85.657,38.398 -85.657,90.826 0,52.428 38.398,90.826 85.657,90.826 47.259,0 85.657,-38.398 85.657,-90.826 0,-52.428 -38.398,-90.826 -85.657,-90.826"
             style="fill:#ffffff;fill-opacity:1;fill-rule:nonzero;stroke:none"
             id="path15192" />
        </g>
      </g>
    </g>
  </g>
</svg>
