%!PS-Adobe-3.0
%%Creator: cairo 1.18.0 (https://cairographics.org)
%%CreationDate: Thu Mar 28 20:07:10 2024
%%Pages: 1
%%DocumentData: Clean7Bit
%%LanguageLevel: 2
%%DocumentMedia: 45x55mm 128 156 0 () ()
%%BoundingBox: 0 0 128 156
%%EndComments
%%BeginProlog
/languagelevel where
{ pop languagelevel } { 1 } ifelse
2 lt { /Helvetica findfont 12 scalefont setfont 50 500 moveto
  (This print job requires a PostScript Language Level 2 printer.) show
  showpage quit } if
/q { gsave } bind def
/Q { grestore } bind def
/cm { 6 array astore concat } bind def
/w { setlinewidth } bind def
/J { setlinecap } bind def
/j { setlinejoin } bind def
/M { setmiterlimit } bind def
/d { setdash } bind def
/m { moveto } bind def
/l { lineto } bind def
/c { curveto } bind def
/h { closepath } bind def
/re { exch dup neg 3 1 roll 5 3 roll moveto 0 rlineto
      0 exch rlineto 0 rlineto closepath } bind def
/S { stroke } bind def
/f { fill } bind def
/f* { eofill } bind def
/n { newpath } bind def
/W { clip } bind def
/W* { eoclip } bind def
/BT { } bind def
/ET { } bind def
/BDC { mark 3 1 roll /BDC pdfmark } bind def
/EMC { mark /EMC pdfmark } bind def
/cairo_store_point { /cairo_point_y exch def /cairo_point_x exch def } def
/Tj { show currentpoint cairo_store_point } bind def
/TJ {
  {
    dup
    type /stringtype eq
    { show } { -0.001 mul 0 cairo_font_matrix dtransform rmoveto } ifelse
  } forall
  currentpoint cairo_store_point
} bind def
/cairo_selectfont { cairo_font_matrix aload pop pop pop 0 0 6 array astore
    cairo_font exch selectfont cairo_point_x cairo_point_y moveto } bind def
/Tf { pop /cairo_font exch def /cairo_font_matrix where
      { pop cairo_selectfont } if } bind def
/Td { matrix translate cairo_font_matrix matrix concatmatrix dup
      /cairo_font_matrix exch def dup 4 get exch 5 get cairo_store_point
      /cairo_font where { pop cairo_selectfont } if } bind def
/Tm { 2 copy 8 2 roll 6 array astore /cairo_font_matrix exch def
      cairo_store_point /cairo_font where { pop cairo_selectfont } if } bind def
/g { setgray } bind def
/rg { setrgbcolor } bind def
/d1 { setcachedevice } bind def
/cairo_data_source {
  CairoDataIndex CairoData length lt
    { CairoData CairoDataIndex get /CairoDataIndex CairoDataIndex 1 add def }
    { () } ifelse
} def
/cairo_flush_ascii85_file { cairo_ascii85_file status { cairo_ascii85_file flushfile } if } def
/cairo_image { image cairo_flush_ascii85_file } def
/cairo_imagemask { imagemask cairo_flush_ascii85_file } def
/cairo_set_page_size {
  % Change paper size, but only if different from previous paper size otherwise
  % duplex fails. PLRM specifies a tolerance of 5 pts when matching paper size
  % so we use the same when checking if the size changes.
  /setpagedevice where {
    pop currentpagedevice
    /PageSize known {
      2 copy
      currentpagedevice /PageSize get aload pop
      exch 4 1 roll
      sub abs 5 gt
      3 1 roll
      sub abs 5 gt
      or
    } {
      true
    } ifelse
    {
      2 array astore
      2 dict begin
        /PageSize exch def
        /ImagingBBox null def
      currentdict end
      setpagedevice
    } {
      pop pop
    } ifelse
  } {
    pop
  } ifelse
} def
%%EndProlog
%%BeginSetup
%%EndSetup
%%Page: 1 1
%%BeginPageSetup
%%PageMedia: 45x55mm
%%PageBoundingBox: 0 0 128 156
128 156 cairo_set_page_size
%%EndPageSetup
q 0 0 128 156 rectclip
1 0 0 -1 0 156 cm q
0 g
0.456462 w
0 J
0 j
[] 0.0 d
4 M q 1 0 0 1 0 0 cm
0.227 0.227 127.105 155.449 re S Q
0.227 0.227 127.105 155.449 re f
0.658824 0 0.188235 rg
69.246 57.891 m 68.094 57.906 69.465 58.484 70.973 58.715 c 71.391 58.391
 71.766 58.062 72.105 57.742 c 71.168 57.973 70.211 57.977 69.246 57.891
 c f
75.445 56.344 m 76.137 55.395 76.637 54.355 76.812 53.281 c 76.66 54.047
 76.246 54.707 75.852 55.406 c 73.691 56.766 75.648 54.598 75.852 53.773
 c 73.531 56.699 75.531 55.527 75.445 56.344 c f
77.734 50.387 m 77.875 48.309 77.328 48.965 77.141 49.758 c 77.355 49.871
 77.527 51.227 77.734 50.387 c f
64.867 21.953 m 65.484 22.062 66.199 22.148 66.098 22.297 c 66.773 22.148
 66.926 22.012 64.867 21.953 c f
66.098 22.297 m 65.664 22.387 l 66.066 22.352 l 66.098 22.297 l f
85.324 51.176 m 85.391 53.043 84.777 53.953 84.223 55.559 c 83.223 56.055
 l 82.406 57.641 83.305 57.062 82.719 58.324 c 81.441 59.457 78.848 61.871
 78.02 62.094 c 77.41 62.082 78.43 61.379 78.562 61.102 c 76.852 62.273 
77.191 62.863 74.578 63.574 c 74.504 63.406 l 68.062 66.438 59.117 60.43
 59.234 52.238 c 59.164 52.758 59.039 52.629 58.895 52.836 c 58.562 48.625
 60.844 44.391 64.688 42.66 c 68.445 40.801 72.852 41.562 75.543 44.074 
c 74.066 42.137 71.121 40.082 67.633 40.273 c 64.215 40.328 61.02 42.5 59.949
 44.859 c 58.199 45.961 57.996 49.109 57.234 49.684 c 56.207 57.23 59.164
 60.488 64.168 64.324 c 64.953 64.855 64.391 64.934 64.496 65.34 c 62.832
 64.562 61.312 63.387 60.059 61.945 c 60.723 62.918 61.441 63.863 62.367
 64.605 c 60.801 64.078 58.703 60.809 58.094 60.676 c 60.797 65.512 69.055
 69.16 73.383 67.348 c 71.379 67.422 68.836 67.391 66.59 66.559 c 65.645
 66.074 64.359 65.066 64.59 64.879 c 70.492 67.082 76.59 66.547 81.695 62.453
 c 82.996 61.441 84.418 59.719 84.828 59.695 c 84.211 60.625 84.934 60.145
 84.457 60.965 c 85.75 58.875 83.895 60.113 85.797 57.359 c 86.496 58.324
 l 86.234 56.59 88.652 54.484 88.406 51.742 c 88.961 50.906 89.023 52.648
 88.434 54.574 c 89.25 52.438 88.652 52.09 88.859 50.324 c 89.086 50.918
 89.383 51.551 89.535 52.176 c 89.004 50.109 90.078 48.695 90.348 47.492
 c 90.082 47.379 89.527 48.406 89.398 45.965 c 89.418 44.906 89.695 45.41
 89.801 45.148 c 89.594 45.027 89.047 44.215 88.715 42.656 c 88.953 42.289
 89.359 43.605 89.688 43.66 c 89.477 42.422 89.113 41.477 89.098 40.523 
c 88.137 38.52 88.758 40.789 87.98 39.664 c 86.961 36.484 88.828 38.926 
88.953 37.48 c 90.5 39.719 91.379 43.191 91.785 44.629 c 91.477 42.875 90.977
 41.176 90.367 39.535 c 90.836 39.73 89.609 35.93 90.98 38.449 c 89.52 33.078
 84.734 28.062 80.332 25.707 c 80.867 26.199 81.547 26.82 81.305 26.914 
c 79.113 25.613 79.5 25.512 79.184 24.961 c 77.402 24.234 77.285 25.02 76.105
 24.961 c 72.742 23.176 72.094 23.367 69 22.25 c 69.141 22.91 l 66.914 22.168
 66.543 23.188 64.137 22.91 c 63.992 22.797 64.91 22.496 65.664 22.387 c
 63.512 22.672 63.613 21.961 61.504 22.465 c 62.023 22.102 62.574 21.859
 63.129 21.551 c 61.371 21.656 58.934 22.57 59.688 21.738 c 56.824 23.016
 51.734 24.812 48.879 27.488 c 48.789 26.891 l 47.48 28.461 43.086 31.578
 42.734 33.613 c 42.387 33.695 l 41.707 34.848 41.266 36.152 40.723 37.34
 c 39.836 38.855 39.418 37.922 39.547 38.16 c 37.797 41.711 36.922 44.695
 36.172 47.141 c 36.707 47.941 36.188 51.961 36.387 55.176 c 35.508 71.059
 47.535 86.477 60.68 90.035 c 62.605 90.727 65.469 90.703 67.906 90.77 c
 65.031 89.945 64.66 90.336 61.859 89.359 c 59.84 88.406 59.398 87.32 57.965
 86.078 c 58.531 87.078 l 55.727 86.086 56.898 85.848 54.617 85.125 c 55.223
 84.336 l 54.312 84.266 52.812 82.805 52.402 81.992 c 51.406 82.031 l 50.211
 80.559 49.574 79.492 49.621 78.668 c 49.297 79.242 l 48.934 78.617 44.898
 73.707 46.992 74.852 c 46.605 74.496 46.086 74.273 45.527 73.254 c 45.953
 72.766 l 44.945 71.473 44.098 69.809 44.164 69.258 c 44.699 69.98 45.074
 70.117 45.441 70.242 c 42.898 63.93 42.754 69.895 40.828 63.816 c 41.234
 63.785 l 40.926 63.312 40.734 62.805 40.484 62.301 c 40.66 60.535 l 38.832
 58.418 40.148 51.531 40.414 47.754 c 40.598 46.219 41.941 44.586 42.965
 42.02 c 42.344 41.914 l 43.535 39.836 49.148 33.566 51.746 33.887 c 53.008
 32.305 51.496 33.879 51.25 33.484 c 54.02 30.621 54.887 31.461 56.754 30.945
 c 58.766 29.75 55.027 31.414 55.98 30.488 c 59.461 29.602 58.445 28.469
 62.988 28.02 c 63.465 28.289 61.875 28.438 61.477 28.793 c 64.375 27.371
 70.652 27.695 74.73 29.578 c 79.461 31.793 84.777 38.324 84.988 44.473 
c 85.227 44.539 l 85.105 46.984 85.602 49.809 84.742 52.406 c 85.324 51.176
 l f
56.637 59.473 m 56.473 60.285 l 57.234 61.316 57.836 62.434 58.805 63.238
 c 58.109 61.879 57.59 61.316 56.637 59.473 c f
58.434 59.406 m 58.031 58.961 57.793 58.426 57.527 57.891 c 57.781 58.828
 58.305 59.633 58.789 60.453 c 58.434 59.406 l f
90.195 52.5 m 90.023 52.926 l 89.715 55.137 89.039 57.324 88.012 59.352
 c 89.148 57.211 89.883 54.871 90.195 52.5 c f
65.094 21.398 m 65.875 21.113 67.016 21.242 67.844 21.055 c 66.762 21.145
 65.688 21.199 64.625 21.336 c 65.094 21.398 l f
37.672 35.98 m 37.852 37.648 36.422 38.293 37.988 37.195 c 38.832 35.297
 37.66 36.672 37.672 35.98 c f
35.828 43.691 m 36.188 42.582 36.254 41.914 36.395 41.273 c 35.395 42.551
 35.934 42.824 35.828 43.691 c f
1 g
35.633 107.961 m 35.602 107.996 35.602 113.121 35.539 114.461 c 35.477 
115.543 35.379 117.867 33.086 117.867 c 30.73 117.867 30.156 115.16 29.965
 113.984 c 29.742 112.676 29.742 111.594 29.742 111.117 c 29.742 109.586
 29.836 105.316 33.438 105.316 c 34.52 105.316 35.125 105.637 35.602 105.891
 c h
26.395 111.723 m 26.395 120.703 31.176 120.703 31.875 120.703 c 33.852 
120.703 35.125 119.621 35.668 117.742 c 35.73 120.578 l 36.336 120.543 36.941
 120.48 37.93 120.48 c 38.277 120.48 38.562 120.48 38.82 120.516 c 39.074
 120.516 39.328 120.543 39.617 120.578 c 39.105 119.559 38.723 117.266 38.723
 112.293 c 38.723 107.453 38.723 99.266 39.137 96.781 c 37.992 97.324 37.004
 97.672 34.836 97.863 c 35.699 98.789 35.699 99.266 35.699 103.469 c 35.094
 103.277 34.328 103.055 33.023 103.055 c 27.32 103.055 26.395 108.027 26.395
 111.723 c f
43.672 110.098 m 43.703 107.453 44.246 105.094 46.508 105.094 c 48.992 
105.094 49.184 107.832 49.117 110.098 c h
52.273 110.414 m 52.273 106.688 51.539 103.023 46.824 103.023 c 40.328 
103.023 40.328 110.227 40.328 111.754 c 40.328 118.219 43.227 120.766 48.102
 120.766 c 50.266 120.766 51.316 120.449 51.891 120.289 c 51.859 119.145
 52.02 118.41 52.211 117.422 c 51.539 117.84 50.68 118.379 48.77 118.379
 c 43.801 118.379 43.734 113.855 43.734 112.293 c 52.211 112.293 l 52.273
 110.414 l f
62.637 111.785 m 62.637 114.746 62.094 118.73 58.398 118.73 c 57.891 118.73
 57.254 118.633 56.84 118.539 c 56.773 117.391 56.773 115.418 56.773 113.121
 c 56.773 110.383 57.062 108.953 57.285 108.25 c 57.953 105.988 59.449 105.957
 59.738 105.957 c 62.156 105.957 62.637 109.301 62.637 111.785 c h
53.492 115.258 m 53.492 117.617 53.492 118.953 53.113 119.973 c 54.418 
120.48 56.043 120.766 57.984 120.766 c 59.227 120.766 62.828 120.766 64.77
 116.785 c 65.695 114.938 66.012 112.453 66.012 110.574 c 66.012 109.426
 65.883 106.91 64.961 105.316 c 64.07 103.82 62.637 103.055 61.109 103.055
 c 58.051 103.055 57.156 105.605 56.68 106.91 c 56.68 105.285 56.711 99.617
 56.965 96.719 c 54.895 97.672 53.621 97.832 52.254 97.961 c 53.496 98.469
 53.496 100.574 53.496 107.422 c 53.496 115.258 l f
72.137 120.578 m 71.5 120.48 71.051 120.418 70.129 120.418 c 69.109 120.418
 68.406 120.48 67.676 120.578 c 67.996 119.973 68.121 119.684 68.219 117.613
 c 68.344 114.777 68.375 107.195 68.152 105.605 c 67.996 104.395 67.707 
104.203 67.262 103.883 c 69.875 103.629 70.605 103.438 71.816 102.867 c 
71.562 104.266 71.527 104.969 71.527 107.102 c 71.465 118.094 71.434 119.27
 72.137 120.578 c f
82.336 111.562 m 82.273 113.566 82.242 114.969 81.699 116.086 c 81.031 
117.52 79.914 117.934 79.086 117.934 c 77.176 117.934 76.762 116.34 76.762
 114.781 c 76.762 111.785 79.438 111.562 80.648 111.562 c h
73.574 115.48 m 73.574 117.488 74.18 119.492 75.965 120.355 c 76.762 120.703
 77.559 120.703 77.812 120.703 c 80.746 120.703 81.73 118.539 82.336 117.199
 c 82.305 118.602 82.336 119.461 82.434 120.578 c 83.008 120.543 83.578 
120.48 84.535 120.48 c 85.078 120.48 85.586 120.543 86.129 120.578 c 85.777
 120.035 85.586 119.715 85.488 118.473 c 85.426 117.266 85.426 116.055 85.426
 114.363 c 85.461 107.867 l 85.461 105.445 84.82 103.055 80.043 103.055 
c 76.891 103.055 75.043 104.012 74.117 104.488 c 74.5 105.191 74.82 105.793
 75.105 107.168 c 76.352 106.082 77.973 105.508 79.629 105.508 c 82.273 
105.508 82.273 107.262 82.273 109.746 c 81.668 109.715 81.16 109.652 80.297
 109.652 c 76.25 109.652 73.574 111.211 73.574 115.48 c f
100.684 117.422 m 100.719 118.508 100.719 119.652 101.164 120.578 c 100.461
 120.516 100.047 120.418 98.742 120.418 c 97.977 120.418 97.562 120.484 
96.957 120.578 c 97.082 120.164 97.148 120.004 97.211 119.461 c 97.309 118.73
 97.371 116.277 97.371 115.418 c 97.371 111.977 l 97.371 110.48 97.371 108.312
 97.273 107.547 c 97.211 107.008 97.055 105.543 95.203 105.543 c 93.391 
105.543 92.785 106.879 92.559 107.961 c 92.309 109.078 92.309 110.289 92.309
 115.004 c 92.336 119.082 92.336 119.461 92.656 120.578 c 92.113 120.516
 91.445 120.449 90.492 120.449 c 89.727 120.449 89.215 120.48 88.582 120.578
 c 88.805 120.066 88.93 119.812 88.992 118.027 c 89.059 116.277 89.188 107.676
 88.898 105.637 c 88.738 104.395 88.418 104.109 88.07 103.789 c 90.652 103.66
 91.477 103.246 92.273 102.836 c 92.273 106.211 l 92.656 105.223 93.453 
103.023 96.641 103.023 c 100.621 103.023 100.652 105.922 100.684 107.832
 c 100.684 117.422 l f
0.658824 0 0.188235 rg
72.406 98.355 m 69.766 100.992 l 67.129 98.355 l 69.766 95.719 l 72.406
 98.355 l f
Q Q
showpage
%%Trailer
%%EOF
