<?xml version="1.0" encoding="UTF-8" standalone="no"?>
<!-- Created with Inkscape (http://www.inkscape.org/) -->

<svg
   width="230"
   height="80"
   id="svg3948"
   version="1.1"
   inkscape:version="1.2.2 (b0a8486541, 2022-12-01)"
   sodipodi:docname="logo-nazinha.svg"
   inkscape:export-filename="/home/phls/Dropbox/debian-brasil/logo-debian-brasil.png"
   inkscape:export-xdpi="96"
   inkscape:export-ydpi="96"
   xmlns:inkscape="http://www.inkscape.org/namespaces/inkscape"
   xmlns:sodipodi="http://sodipodi.sourceforge.net/DTD/sodipodi-0.dtd"
   xmlns="http://www.w3.org/2000/svg"
   xmlns:svg="http://www.w3.org/2000/svg"
   xmlns:rdf="http://www.w3.org/1999/02/22-rdf-syntax-ns#"
   xmlns:cc="http://creativecommons.org/ns#"
   xmlns:dc="http://purl.org/dc/elements/1.1/">
  <defs
     id="defs3950">
    <clipPath
       clipPathUnits="userSpaceOnUse"
       id="clipPath16">
      <path
         inkscape:connector-curvature="0"
         d="M 0,800 H 1280 V 0 H 0 Z"
         id="path18" />
    </clipPath>
    <clipPath
       clipPathUnits="userSpaceOnUse"
       id="clipPath38">
      <path
         inkscape:connector-curvature="0"
         d="M 0,800 H 1280 V 0 H 0 Z"
         id="path40" />
    </clipPath>
    <clipPath
       clipPathUnits="userSpaceOnUse"
       id="clipPath56">
      <path
         inkscape:connector-curvature="0"
         d="M 0,800 H 1280 V 0 H 0 Z"
         id="path58" />
    </clipPath>
    <clipPath
       clipPathUnits="userSpaceOnUse"
       id="clipPath80">
      <path
         inkscape:connector-curvature="0"
         d="M 0,800 H 1280 V 0 H 0 Z"
         id="path82" />
    </clipPath>
    <clipPath
       clipPathUnits="userSpaceOnUse"
       id="clipPath100">
      <path
         inkscape:connector-curvature="0"
         d="M 0,800 H 1280 V 0 H 0 Z"
         id="path102" />
    </clipPath>
    <clipPath
       clipPathUnits="userSpaceOnUse"
       id="clipPath18">
      <path
         d="M 0,235.276 H 481.89 V 0 H 0 Z"
         id="path16" />
    </clipPath>
  </defs>
  <sodipodi:namedview
     id="base"
     pagecolor="#ffffff"
     bordercolor="#666666"
     borderopacity="1.0"
     inkscape:pageopacity="0.0"
     inkscape:pageshadow="2"
     inkscape:zoom="1.4"
     inkscape:cx="178.21429"
     inkscape:cy="46.428571"
     inkscape:document-units="px"
     inkscape:current-layer="g4457"
     showgrid="false"
     inkscape:window-width="1920"
     inkscape:window-height="1003"
     inkscape:window-x="1080"
     inkscape:window-y="0"
     inkscape:window-maximized="1"
     inkscape:showpageshadow="2"
     inkscape:pagecheckerboard="0"
     inkscape:deskcolor="#d1d1d1" />
  <metadata
     id="metadata3953">
    <rdf:RDF>
      <cc:Work
         rdf:about="">
        <dc:format>image/svg+xml</dc:format>
        <dc:type
           rdf:resource="http://purl.org/dc/dcmitype/StillImage" />
      </cc:Work>
    </rdf:RDF>
  </metadata>
  <g
     inkscape:label="Camada 1"
     inkscape:groupmode="layer"
     id="layer1"
     transform="translate(0,-622.5197)">
    <g
       id="g4457"
       transform="translate(-201.18066,-543.63188)">
      <g
         id="g12"
         transform="matrix(0.36418551,0,0,-0.36418551,228.35379,1249.0264)">
        <g
           id="g14"
           clip-path="url(#clipPath18)">
          <g
             id="g20"
             transform="translate(431.5137,173.4434)">
            <path
               d="m 0,0 h -67.498 c -25.843,28.429 -70.882,47.254 -122.125,47.254 -51.242,0 -96.281,-18.825 -122.124,-47.254 h -68.962 c -20.112,0 -36.417,-16.305 -36.417,-36.417 v -35.3 c 0,-20.112 16.305,-36.417 36.417,-36.417 h 66.095 c 25.289,-30.26 71.795,-50.551 124.991,-50.551 53.197,0 99.703,20.291 124.992,50.551 H 0 c 20.113,0 36.418,16.305 36.418,36.417 v 35.3 C 36.418,-16.305 20.113,0 0,0"
               style="fill:#ed1c24;fill-opacity:1;fill-rule:nonzero;stroke:none"
               id="path22" />
          </g>
          <g
             id="g24"
             transform="translate(128.4609,153.147)">
            <path
               d="m 0,0 c 0,0 27.949,37.17 76.841,37.662 47.55,0.476 65.811,-19.321 72.502,-25.588 0,0 2.286,-4.16 11.418,-3.245 9.135,0.914 10.297,6.609 6.628,9.973 -2.871,2.625 -28.749,35.251 -90.278,30.215 -56.54,-4.624 -78.908,-47.46 -78.908,-47.46 0,0 -1.288,-2.118 -0.56,-2.818 C -1.634,-1.958 0,0 0,0"
               style="fill:#ffffff;fill-opacity:1;fill-rule:nonzero;stroke:none"
               id="path26" />
          </g>
          <g
             id="g28"
             transform="translate(318.0742,168.8027)">
            <path
               d="m 0,0 c 0,0 5.911,-6.198 15.047,-4.476 9.493,1.791 6.435,6.933 3.684,9.708 -2.751,2.772 -44.412,42.842 -116.782,32.969 0,0 53.01,5.716 98.051,-38.201"
               style="fill:#ffffff;fill-opacity:1;fill-rule:nonzero;stroke:none"
               id="path30" />
          </g>
          <g
             id="g32"
             transform="translate(351.5312,80.9561)">
            <path
               d="m 0,0 c 0,0 -27.949,-37.171 -76.841,-37.662 -47.55,-0.477 -65.811,19.32 -72.502,25.588 0,0 -2.286,4.159 -11.418,3.245 -9.135,-0.915 -10.297,-6.61 -6.628,-9.974 2.871,-2.624 28.749,-35.251 90.278,-30.214 56.54,4.624 78.908,47.459 78.908,47.459 0,0 1.288,2.119 0.56,2.819 C 1.634,1.957 0,0 0,0"
               style="fill:#ffffff;fill-opacity:1;fill-rule:nonzero;stroke:none"
               id="path34" />
          </g>
          <g
             id="g36"
             transform="translate(161.918,65.2998)">
            <path
               d="m 0,0 c 0,0 -5.911,6.198 -15.047,4.476 -9.493,-1.791 -6.435,-6.932 -3.684,-9.708 2.751,-2.772 44.412,-42.842 116.782,-32.969 0,0 -53.01,-5.717 -98.051,38.201"
               style="fill:#ffffff;fill-opacity:1;fill-rule:nonzero;stroke:none"
               id="path38" />
          </g>
          <g
             id="g40"
             transform="translate(113.0547,122.0176)">
            <path
               d="m 0,0 c 0.059,2.514 0.145,5.936 0.254,10.266 0.258,10.911 0.192,13.884 -0.198,16.102 -0.362,2.048 -1.185,3.625 -2.474,4.733 -1.287,1.108 -2.956,1.664 -5.003,1.664 -1.445,0 -2.974,-0.235 -4.588,-0.696 -1.615,-0.463 -3.392,-1.189 -5.333,-2.183 0.668,-1.121 1.252,-2.438 1.753,-3.941 0.499,-1.504 0.924,-3.234 1.268,-5.182 0.606,-3.439 0.999,-4.751 1.181,-11.115 0.183,-6.367 0.13,-13.68 -0.159,-21.946 -11.965,13.555 -22.098,22.478 -30.402,33.952 -0.447,0.629 -0.76,1.057 -0.933,1.292 -2.674,3.536 -5.059,5.972 -7.16,7.312 -2.102,1.341 -4.444,2.011 -7.029,2.011 -1.95,0 -3.745,-0.488 -5.386,-1.464 -1.643,-0.975 -3.291,-2.486 -4.942,-4.537 1.381,-0.992 2.458,-2.135 3.222,-3.422 0.765,-1.292 1.317,-2.894 1.656,-4.811 0.395,-2.25 0.658,-2.196 0.788,-7.022 0.13,-4.828 0.119,-10.534 -0.032,-17.113 -0.161,-6.318 -0.597,-11.506 -1.307,-15.574 -0.712,-4.067 -1.715,-7.275 -3.014,-9.617 1.801,-1.259 3.554,-2.202 5.259,-2.83 1.706,-0.627 3.364,-0.942 4.977,-0.942 2.048,0 3.689,0.419 4.916,1.265 1.231,0.841 2.047,2.108 2.456,3.793 0.66,2.546 0.713,10.33 0.164,23.359 -0.329,7.571 -0.56,10.048 -0.694,14.613 7.551,-9.291 14.663,-14.235 21.343,-22.001 6.677,-7.77 13.241,-15.195 19.696,-22.268 l 11.104,5.604 C 0.759,-26.4 0.34,-21.74 0.124,-16.713 -0.09,-11.688 -0.132,-6.117 0,0"
               style="fill:#ffffff;fill-opacity:1;fill-rule:nonzero;stroke:none"
               id="path42" />
          </g>
          <g
             id="g44"
             transform="translate(140.3008,107.7842)">
            <path
               d="m 0,0 c -0.88,4.989 -0.107,9.218 2.324,12.673 2.43,3.453 5.779,5.183 10.044,5.183 1.243,0 2.531,-0.201 3.861,-0.597 1.328,-0.398 2.753,-1.008 4.277,-1.834 -0.088,-2.745 -0.151,-5.48 -0.19,-8.206 -0.04,-2.728 -0.045,-5.417 -0.013,-8.061 -1.477,-2.679 -3.168,-4.754 -5.075,-6.223 -1.906,-1.473 -3.885,-2.209 -5.933,-2.209 -2.284,0 -4.283,0.848 -5.994,2.552 C 1.59,-5.018 0.489,-2.777 0,0 m 14.521,-19.193 c 2.59,1.683 4.917,4.396 6.977,8.134 -0.057,-0.628 -0.06,-1.272 -0.011,-1.935 0.05,-0.659 0.13,-1.308 0.241,-1.936 0.343,-1.949 1.04,-3.422 2.089,-4.411 1.047,-0.992 2.428,-1.489 4.143,-1.489 1.441,0 3.001,0.256 4.674,0.77 1.674,0.509 3.543,1.294 5.606,2.354 -0.613,0.992 -1.124,2.082 -1.536,3.274 -0.41,1.193 -0.75,2.546 -1.018,4.068 -0.84,4.76 -1.203,10.378 -1.085,16.861 0.116,6.481 0.731,13.323 1.844,20.534 -1.515,0.396 -2.885,0.694 -4.113,0.89 -1.227,0.2 -2.377,0.3 -3.453,0.3 -1.175,0 -2.392,-0.1 -3.65,-0.3 -1.259,-0.196 -2.507,-0.494 -3.749,-0.89 -2.092,0.825 -4.089,1.435 -5.99,1.833 -1.9,0.397 -3.774,0.596 -5.622,0.596 -4.433,0 -8.501,-0.983 -12.2,-2.952 -3.7,-1.967 -6.723,-4.784 -9.064,-8.455 -1.878,-2.877 -3.135,-6.074 -3.774,-9.596 -0.64,-3.52 -0.627,-7.149 0.03,-10.887 1.033,-5.852 3.411,-10.533 7.137,-14.035 3.724,-3.507 8.155,-5.26 13.296,-5.26 3.559,0 6.637,0.845 9.228,2.532"
               style="fill:#ffffff;fill-opacity:1;fill-rule:nonzero;stroke:none"
               id="path46" />
          </g>
          <g
             id="g48"
             transform="translate(187.9775,100.8418)">
            <path
               d="m 0,0 c -1.176,-1.521 -1.976,-2.928 -2.403,-4.215 -0.428,-1.294 -0.528,-2.58 -0.3,-3.867 0.168,-0.961 0.524,-1.928 1.065,-2.906 0.542,-0.972 1.254,-1.975 2.141,-2.998 0.721,0.295 1.611,0.518 2.678,0.67 1.065,0.147 2.438,0.224 4.117,0.224 2.453,0 6.06,-0.137 10.827,-0.4 4.766,-0.263 8.289,-0.396 10.575,-0.396 3.124,0 5.378,0.596 6.764,1.784 1.385,1.193 1.87,2.959 1.456,5.309 -0.128,0.73 -0.394,1.57 -0.798,2.531 -0.404,0.957 -0.973,2.083 -1.703,3.369 -1.021,-0.694 -2.584,-1.206 -4.691,-1.535 -2.11,-0.333 -4.96,-0.498 -8.554,-0.498 -1.008,0 -2.712,0.053 -5.113,0.148 -0.411,0.035 -0.716,0.052 -0.917,0.052 2.312,3.275 5.47,7.539 9.48,12.797 7.828,10.283 11.465,16.992 10.909,20.133 -0.168,0.961 -0.474,1.934 -0.918,2.928 -0.445,0.992 -1.026,2 -1.743,3.026 -1.023,-0.299 -2.193,-0.523 -3.51,-0.672 -1.318,-0.147 -2.915,-0.224 -4.796,-0.224 -2.552,0 -5.91,0.124 -10.068,0.373 -4.158,0.249 -7.042,0.373 -8.655,0.373 -3.561,0 -6.094,-0.538 -7.601,-1.612 -1.506,-1.073 -2.058,-2.752 -1.655,-5.035 0.15,-0.859 0.463,-1.82 0.934,-2.875 0.472,-1.061 1.136,-2.3 1.992,-3.718 0.701,0.592 1.949,1.03 3.748,1.311 1.797,0.282 4.226,0.421 7.281,0.421 1.98,0 3.532,-0.025 4.648,-0.072 1.118,-0.053 2.189,-0.125 3.216,-0.225 C 15.142,19.273 11.285,14.049 6.834,8.527 2.385,3.008 0.105,0.165 0,0"
               style="fill:#ffffff;fill-opacity:1;fill-rule:nonzero;stroke:none"
               id="path50" />
          </g>
          <g
             id="g52"
             transform="translate(234.4414,103.0713)">
            <path
               d="m 0,0 c -0.223,-5.224 -0.196,-8.597 0.072,-10.115 0.362,-2.051 1.206,-3.566 2.537,-4.537 1.332,-0.978 3.206,-1.465 5.625,-1.465 1.579,0 3.247,0.206 5.004,0.62 1.758,0.414 3.592,1.017 5.501,1.809 -0.601,1.123 -1.11,2.29 -1.525,3.496 -0.414,1.21 -0.734,2.454 -0.961,3.748 -0.421,2.377 -0.662,5.407 -0.719,9.074 -0.061,3.668 0.072,8.016 0.393,13.043 0.052,0.661 0.116,1.638 0.189,2.93 0.32,4.857 0.316,8.212 -0.011,10.064 -0.32,1.819 -1.151,3.19 -2.489,4.116 -1.339,0.925 -3.202,1.39 -5.587,1.39 -1.646,0 -3.357,-0.207 -5.131,-0.62 -1.774,-0.414 -3.599,-1.015 -5.475,-1.809 0.557,-1.061 1.022,-2.127 1.397,-3.202 0.373,-1.074 0.661,-2.172 0.86,-3.297 C 0.013,23.36 0.225,20.863 0.321,17.756 0.414,14.647 0.373,10.729 0.202,6.003 0.161,4.513 0.093,2.515 0,0"
               style="fill:#ffffff;fill-opacity:1;fill-rule:nonzero;stroke:none"
               id="path54" />
          </g>
          <g
             id="g56"
             transform="translate(236.8906,146.8882)">
            <path
               d="m 0,0 c 1.651,-1.369 3.653,-2.056 6.006,-2.056 2.721,0 4.859,0.959 6.42,2.875 1.558,1.919 2.096,4.251 1.613,6.996 -0.396,2.248 -1.406,4.022 -3.031,5.331 -1.625,1.305 -3.613,1.958 -5.964,1.958 -2.652,0 -4.788,-0.949 -6.399,-2.852 C -2.968,10.349 -3.545,8.094 -3.084,5.484 -2.682,3.201 -1.653,1.375 0,0"
               style="fill:#ffffff;fill-opacity:1;fill-rule:nonzero;stroke:none"
               id="path58-6" />
          </g>
          <g
             id="g60"
             transform="translate(297.2393,92.9561)">
            <path
               d="m 0,0 c 0.354,-2.016 1.21,-3.523 2.56,-4.513 1.349,-0.992 3.232,-1.489 5.651,-1.489 1.68,0 3.415,0.214 5.203,0.645 1.788,0.427 3.633,1.058 5.536,1.886 -0.644,1.189 -1.181,2.373 -1.605,3.545 -0.428,1.171 -0.747,2.373 -0.964,3.597 -0.558,3.174 -0.758,7.619 -0.589,13.341 0.164,5.718 0.027,9.834 -0.414,12.347 -0.824,4.662 -2.78,8.332 -5.873,11.011 -3.092,2.679 -6.939,4.017 -11.542,4.017 -3.058,0 -5.937,-0.672 -8.638,-2.008 -2.705,-1.339 -5.135,-3.315 -7.293,-5.929 l -0.088,0.498 c -0.435,2.479 -1.507,4.355 -3.209,5.628 -1.703,1.274 -3.998,1.911 -6.886,1.911 -1.041,0 -2.172,-0.108 -3.396,-0.321 -1.221,-0.219 -2.63,-0.558 -4.226,-1.02 0.463,-0.924 0.853,-1.892 1.164,-2.9 0.313,-1.008 0.58,-2.141 0.8,-3.397 0.38,-2.148 0.637,-4.745 0.77,-7.787 0.135,-3.042 0.123,-6.398 -0.036,-10.069 -0.072,-1.887 -0.209,-4.429 -0.418,-7.637 -0.344,-6.051 -0.353,-9.999 -0.025,-11.854 0.314,-1.784 1.177,-3.148 2.586,-4.092 1.408,-0.942 3.272,-1.412 5.589,-1.412 1.68,0 3.389,0.214 5.128,0.645 1.737,0.427 3.455,1.058 5.157,1.886 -0.562,1.09 -1.027,2.205 -1.397,3.345 -0.368,1.14 -0.668,2.374 -0.9,3.695 -0.467,2.644 -0.716,6.133 -0.739,10.466 -0.026,4.33 0.188,9.306 0.642,14.926 1.479,1.324 2.982,2.325 4.509,3.002 1.525,0.677 3.045,1.018 4.556,1.018 2.115,0 3.923,-0.722 5.417,-2.158 1.497,-1.439 2.461,-3.38 2.897,-5.829 C 0.529,21.557 0.606,17.02 0.157,11.381 -0.291,5.743 -0.344,1.949 0,0"
               style="fill:#ffffff;fill-opacity:1;fill-rule:nonzero;stroke:none"
               id="path62" />
          </g>
          <g
             id="g64"
             transform="translate(375.7422,96.627)">
            <path
               d="m 0,0 c -0.561,3.174 -0.757,7.619 -0.589,13.341 0.165,5.719 0.028,9.834 -0.417,12.347 -0.82,4.662 -2.795,8.333 -5.919,11.011 -3.127,2.679 -6.991,4.017 -11.591,4.017 -3.057,0 -5.901,-0.654 -8.523,-1.958 -2.627,-1.306 -5.008,-3.233 -7.143,-5.777 0.064,3.435 0.245,4.334 0.547,9.872 0.298,5.538 0.313,5.494 0.039,7.047 -0.361,2.051 -1.196,3.589 -2.504,4.614 -1.307,1.026 -3.099,1.536 -5.384,1.536 -1.779,0 -3.587,-0.232 -5.418,-0.694 -1.833,-0.463 -3.706,-1.173 -5.62,-2.13 0.508,-1.161 0.946,-2.372 1.322,-3.646 0.375,-1.275 0.677,-2.555 0.904,-3.843 0.483,-2.746 0.827,-3.008 1.03,-7.966 0.204,-4.958 0.236,-7.072 0.099,-13.518 l -0.028,-2.136 c -0.333,-15.245 -0.344,-23.771 -0.021,-25.592 0.378,-2.149 1.185,-3.719 2.419,-4.709 1.231,-0.992 2.991,-1.489 5.274,-1.489 1.746,0 3.481,0.214 5.203,0.645 1.721,0.427 3.45,1.058 5.181,1.886 -0.504,0.957 -0.924,2.023 -1.265,3.198 -0.344,1.174 -0.684,2.72 -1.02,4.635 -0.445,2.514 -0.74,5.905 -0.888,10.171 -0.147,4.264 -0.119,8.957 0.084,14.083 1.526,1.455 3.073,2.545 4.639,3.275 1.568,0.723 3.142,1.091 4.72,1.091 2.114,0 3.92,-0.723 5.417,-2.159 1.497,-1.439 2.462,-3.38 2.892,-5.829 0.611,-3.437 0.702,-7.974 0.289,-13.613 -0.418,-5.638 -0.454,-9.432 -0.11,-11.381 0.355,-2.016 1.21,-3.523 2.557,-4.513 1.352,-0.992 3.219,-1.489 5.605,-1.489 1.68,0 3.399,0.206 5.155,0.62 1.756,0.414 3.619,1.048 5.585,1.911 -0.631,1.09 -1.15,2.219 -1.556,3.394 C 0.555,-2.573 0.231,-1.325 0,0"
               style="fill:#ffffff;fill-opacity:1;fill-rule:nonzero;stroke:none"
               id="path66" />
          </g>
          <g
             id="g68"
             transform="translate(420.4883,115.0029)">
            <path
               d="m 0,0 c -0.039,-2.728 -0.042,-5.417 -0.014,-8.061 -1.476,-2.678 -3.166,-4.753 -5.074,-6.223 -1.907,-1.473 -3.885,-2.209 -5.932,-2.209 -2.286,0 -4.281,0.848 -5.996,2.553 -1.707,1.704 -2.808,3.944 -3.298,6.721 -0.881,4.99 -0.106,9.218 2.324,12.673 2.429,3.453 5.778,5.184 10.045,5.184 1.241,0 2.528,-0.201 3.857,-0.598 C -2.756,9.643 -1.332,9.032 0.192,8.206 0.102,5.461 0.042,2.727 0,0 m 16.388,-21.65 c -0.41,1.192 -0.75,2.546 -1.017,4.067 -0.842,4.761 -1.203,10.378 -1.084,16.861 0.116,6.481 0.73,13.324 1.845,20.534 -1.515,0.396 -2.886,0.694 -4.112,0.891 -1.228,0.199 -2.381,0.299 -3.455,0.299 -1.177,0 -2.394,-0.1 -3.649,-0.299 -1.259,-0.197 -2.508,-0.495 -3.748,-0.891 -2.094,0.826 -4.092,1.436 -5.992,1.834 -1.901,0.396 -3.777,0.596 -5.624,0.596 -4.433,0 -8.499,-0.984 -12.198,-2.952 -3.703,-1.968 -6.722,-4.785 -9.064,-8.456 -1.88,-2.877 -3.138,-6.074 -3.776,-9.596 -0.638,-3.52 -0.627,-7.149 0.031,-10.886 1.035,-5.853 3.412,-10.534 7.136,-14.036 3.723,-3.506 8.159,-5.259 13.298,-5.259 3.559,0 6.634,0.844 9.225,2.531 2.591,1.683 4.919,4.396 6.982,8.135 -0.061,-0.628 -0.064,-1.273 -0.011,-1.936 0.045,-0.659 0.126,-1.308 0.238,-1.935 0.344,-1.95 1.041,-3.422 2.09,-4.412 1.048,-0.992 2.426,-1.489 4.141,-1.489 1.444,0 3.004,0.256 4.676,0.771 1.673,0.508 3.541,1.294 5.607,2.353 -0.614,0.992 -1.125,2.082 -1.539,3.275"
               style="fill:#ffffff;fill-opacity:1;fill-rule:nonzero;stroke:none"
               id="path70" />
          </g>
        </g>
      </g>
    </g>
  </g>
</svg>
