<?xml version="1.0" encoding="UTF-8" standalone="no"?>
<!-- Created with Inkscape (http://www.inkscape.org/) -->

<svg
   width="150"
   height="80"
   id="svg3948"
   version="1.1"
   inkscape:version="1.2.2 (b0a8486541, 2022-12-01)"
   sodipodi:docname="logo-dacompsi-capa.svg"
   inkscape:export-filename="/home/phls/Dropbox/debian-brasil/logo-debian-brasil.png"
   inkscape:export-xdpi="96"
   inkscape:export-ydpi="96"
   xmlns:inkscape="http://www.inkscape.org/namespaces/inkscape"
   xmlns:sodipodi="http://sodipodi.sourceforge.net/DTD/sodipodi-0.dtd"
   xmlns="http://www.w3.org/2000/svg"
   xmlns:svg="http://www.w3.org/2000/svg"
   xmlns:rdf="http://www.w3.org/1999/02/22-rdf-syntax-ns#"
   xmlns:cc="http://creativecommons.org/ns#"
   xmlns:dc="http://purl.org/dc/elements/1.1/">
  <defs
     id="defs3950">
    <clipPath
       clipPathUnits="userSpaceOnUse"
       id="clipPath16">
      <path
         inkscape:connector-curvature="0"
         d="M 0,800 H 1280 V 0 H 0 Z"
         id="path18" />
    </clipPath>
    <clipPath
       clipPathUnits="userSpaceOnUse"
       id="clipPath38">
      <path
         inkscape:connector-curvature="0"
         d="M 0,800 H 1280 V 0 H 0 Z"
         id="path40" />
    </clipPath>
    <clipPath
       clipPathUnits="userSpaceOnUse"
       id="clipPath56">
      <path
         inkscape:connector-curvature="0"
         d="M 0,800 H 1280 V 0 H 0 Z"
         id="path58" />
    </clipPath>
    <clipPath
       clipPathUnits="userSpaceOnUse"
       id="clipPath80">
      <path
         inkscape:connector-curvature="0"
         d="M 0,800 H 1280 V 0 H 0 Z"
         id="path82" />
    </clipPath>
    <clipPath
       clipPathUnits="userSpaceOnUse"
       id="clipPath100">
      <path
         inkscape:connector-curvature="0"
         d="M 0,800 H 1280 V 0 H 0 Z"
         id="path102" />
    </clipPath>
    <clipPath
       id="clip0_1_215">
      <rect
         width="506"
         height="845"
         fill="#ffffff"
         transform="translate(20,20)"
         id="rect1389"
         x="0"
         y="0" />
    </clipPath>
  </defs>
  <sodipodi:namedview
     id="base"
     pagecolor="#ffffff"
     bordercolor="#666666"
     borderopacity="1.0"
     inkscape:pageopacity="0.0"
     inkscape:pageshadow="2"
     inkscape:zoom="3.959798"
     inkscape:cx="147.73481"
     inkscape:cy="46.467017"
     inkscape:document-units="px"
     inkscape:current-layer="g4457"
     showgrid="false"
     inkscape:window-width="1920"
     inkscape:window-height="1003"
     inkscape:window-x="1080"
     inkscape:window-y="0"
     inkscape:window-maximized="1"
     inkscape:showpageshadow="2"
     inkscape:pagecheckerboard="0"
     inkscape:deskcolor="#d1d1d1" />
  <metadata
     id="metadata3953">
    <rdf:RDF>
      <cc:Work
         rdf:about="">
        <dc:format>image/svg+xml</dc:format>
        <dc:type
           rdf:resource="http://purl.org/dc/dcmitype/StillImage" />
      </cc:Work>
    </rdf:RDF>
  </metadata>
  <g
     inkscape:label="Camada 1"
     inkscape:groupmode="layer"
     id="layer1"
     transform="translate(0,-622.5197)">
    <g
       id="g4457"
       transform="translate(-201.18066,-543.63188)">
      <g
         id="g1605"
         transform="matrix(0.09242152,0,0,0.09242152,217.82014,1165.2284)">
        <path
           d="m 690.776,630.701 c -12.285,-6.162 -43.667,-16.666 -38.677,-30.376 5.344,-19.29 50.349,-4.373 49.526,-4.694 l 10.364,-20.994 c 0,0 -8.88,-11.698 -40.213,-11.602 -31.695,0.097 -47.283,13.34 -49.949,42.006 0,0 -6.051,32.66 42.949,47.994 0,0 36.333,12.333 23.333,31 0,0 -12.666,15.333 -63.217,-0.892 l -8.549,24.892 c 0,0 16.433,12.666 64.766,11.498 0,0 20.996,-1.914 32.667,-17.498 14.352,-19.166 15.973,-51.783 -23,-71.334 z"
           fill="#3e4344"
           id="path1255" />
        <path
           d="m 801.107,713.988 h -30 V 568.655 h 30 z"
           fill="#3e4344"
           id="path1257" />
        <path
           d="m 740,508.288 c 0,0 -111.311,50.945 -123.751,-57.781 -0.088,-0.77 -0.249,-5.555 -0.249,-7.44 l 30.223,5.109 c 0,0 0.062,0.908 0.298,2.464 1.78,11.715 13.406,60.157 82.343,33.857 0,0 8.579,17.24 11.136,23.791 z"
           fill="#3e4344"
           id="path1259" />
        <path
           d="m 740,375.327 c 0,0 -111.459,-51.012 -123.776,57.999 -0.08,0.697 -0.224,7.959 -0.224,9.741 l 30.223,-7.628 c 0,0 0.042,-0.627 0.193,-1.731 1.389,-10.233 11.961,-61.481 82.448,-34.59 0,0 8.579,-17.24 11.136,-23.791 z"
           fill="#3e4344"
           id="path1261" />
        <path
           d="m 616.249,450.507 30.621,2.161 c 0,0 -1.327,-13.965 -0.123,-21.052 1.204,-7.087 -30.497,3.823 -30.497,3.823 z"
           fill="#3e4344"
           id="path1263" />
        <path
           d="m 841.799,488.764 c -23.258,0 -42.111,-21.504 -42.111,-48.031 0,-26.527 18.853,-48.032 42.111,-48.032 23.257,0 42.11,21.505 42.11,48.032 0,26.527 -18.853,48.031 -42.11,48.031 z m -0.135,-126.635 c -42.648,0 -77.221,35.673 -77.221,79.679 0,44.006 34.573,79.678 77.221,79.678 42.651,0 77.223,-35.672 77.223,-79.678 0,-44.006 -34.572,-79.679 -77.223,-79.679 z"
           fill="#3e4344"
           id="path1265" />
        <path
           d="m 1025.11,453.808 -39.334,-84.667 h -30.667 l -12.666,145.333 h 32 l 4.666,-96 32.001,78 h 14 z"
           fill="#3e4344"
           id="path1267" />
        <path
           d="m 1025.11,453.808 39.33,-84.667 h 30.67 l 12.67,145.333 h -32 l -4.67,-96 -32,78 h -14 z"
           fill="#3e4344"
           id="path1269" />
        <path
           d="m 1032.44,496.475 h -14.33 v -42.834 h 14.33 z"
           fill="#3e4344"
           id="path1271" />
        <path
           d="m 1162.44,439.616 v -21.667 h -31 v 48.172 l 31,-0.172 h 26.67 c 0,0 52,5.667 53.33,-48 h -30.66 c 0,0 1.66,21.334 -27.67,21.334"
           fill="#3e4344"
           id="path1273" />
        <path
           d="m 1162.44,394.949 v 21.667 h -31 v -48.172 l 31,0.172 h 26.67 c 0,0 52,-5.667 53.33,48 h -30.66 c 0,0 1.66,-21.333 -27.67,-21.333"
           fill="#3e4344"
           id="path1275" />
        <path
           d="m 1162.44,496.283 h -31 v -120 h 31 z"
           fill="#3e4344"
           id="path1277" />
        <path
           d="m 1242.44,420.061 h -30.66 v -7.112 h 30.66 z"
           fill="#3e4344"
           id="path1279" />
        <path
           d="m 1162.44,515.172 h -31 v -53.556 h 31 z"
           fill="#3e4344"
           id="path1281" />
        <path
           d="m 722.109,243.701 c 1,56.667 -66.666,49 -66.666,49 v -98 l 0.038,97.767 v -98 c 0,0 67.667,-7.667 66.667,49 z m 31,-1.752 c 4,-99.394 -128.666,-74.061 -128.666,-74.061 v 150.813 c 0,0 132.666,25.334 128.666,-74.061 z"
           fill="#c90019"
           id="path1283" />
        <path
           d="m 849.642,170.406 h -20.444 l -52,145.778 h 34.221 l 10.223,-30.667 28,0.445 v -26.666 h -19.556 l 19.556,-57.779 z"
           fill="#c90019"
           id="path1285" />
        <path
           d="m 849.642,170.406 h 20.444 l 52,145.778 h -34.221 l -10.223,-30.667 -28,0.445 v -26.666 h 19.556 l -19.556,-57.779 z"
           fill="#c90019"
           id="path1287" />
        <path
           d="M 869.19,285.651 H 832.086 V 259.294 H 869.19 Z"
           fill="#c90019"
           id="path1289" />
        <path
           d="m 856.975,170.406 h -14.666 v 31.11 h 14.666 z"
           fill="#c90019"
           id="path1291" />
        <g
           clip-path="url(#clip0_1_215)"
           id="g1319">
          <path
             d="m 82.8001,641.164 -9.5133,-3.081 88.8642,-274.282 9.513,3.082 z"
             fill="#3e4344"
             id="path1293" />
          <path
             d="m 121.226,121.214 -1.417,-9.899 285.41,-40.8422 1.418,9.8986 z"
             fill="#3e4344"
             id="path1295" />
          <path
             d="m 104.155,675.867 4.229,-9.061 261.244,121.98 -4.23,9.061 z"
             fill="#3e4344"
             id="path1297" />
          <path
             d="m 105.456,660.075 -0.936,-9.956 353.692,-33.2 0.935,9.959 z"
             fill="#3e4344"
             id="path1299" />
          <path
             d="m 112.416,151.917 7.605,-6.493 230.679,270.161 -7.607,6.494 z"
             fill="#3e4344"
             id="path1301" />
          <path
             d="m 79.5781,651.51 -5.9666,-8.026 285.0815,-211.96 5.968,8.025 z"
             fill="#3e4344"
             id="path1303" />
          <path
             d="m 475.791,71.806 c 0,28.1653 -22.832,50.997 -50.997,50.997 -28.166,0 -50.998,-22.8317 -50.998,-50.997 0,-28.1653 22.832,-50.9973 50.998,-50.9973 28.165,0 50.997,22.832 50.997,50.9973 z"
             fill="#3e4344"
             id="path1305" />
          <path
             d="m 143.141,120.137 c 0,28.165 -22.832,50.997 -50.997,50.997 -28.1654,0 -50.9974,-22.832 -50.9974,-50.997 0,-28.1657 22.832,-50.9977 50.9974,-50.9977 28.165,0 50.997,22.832 50.997,50.9977 z"
             fill="#c90019"
             id="path1307" />
          <path
             d="m 221.803,343.792 c 0,28.166 -22.832,50.998 -50.997,50.998 -28.165,0 -50.997,-22.832 -50.997,-50.998 0,-28.165 22.832,-50.997 50.997,-50.997 28.165,0 50.997,22.832 50.997,50.997 z"
             fill="#3e4344"
             id="path1309" />
          <path
             d="m 409.794,436.598 c 0,28.166 -22.832,50.999 -50.997,50.999 -28.165,0 -50.997,-22.833 -50.997,-50.999 0,-28.165 22.832,-50.997 50.997,-50.997 28.165,0 50.997,22.832 50.997,50.997 z"
             fill="#3e4344"
             id="path1311" />
          <path
             d="m 122.475,653.111 c 0,28.165 -22.8318,50.998 -50.9971,50.998 -28.1654,0 -50.9974,-22.833 -50.9974,-50.998 0,-28.166 22.832,-50.998 50.9974,-50.998 28.1653,0 50.9971,22.832 50.9971,50.998 z"
             fill="#c90019"
             id="path1313" />
          <path
             d="m 525.455,623.113 c 0,28.166 -22.832,50.999 -50.997,50.999 -28.166,0 -50.998,-22.833 -50.998,-50.999 0,-28.165 22.832,-50.997 50.998,-50.997 28.165,0 50.997,22.832 50.997,50.997 z"
             fill="#3e4344"
             id="path1315" />
          <path
             d="m 454.126,813.769 c 0,28.166 -22.832,50.999 -50.998,50.999 -28.165,0 -50.997,-22.833 -50.997,-50.999 0,-28.165 22.832,-50.997 50.997,-50.997 28.166,0 50.998,22.832 50.998,50.997 z"
             fill="#3e4344"
             id="path1317" />
        </g>
      </g>
    </g>
  </g>
</svg>
