<?xml version="1.0" encoding="UTF-8" standalone="no"?>
<!-- Created with Inkscape (http://www.inkscape.org/) -->

<svg
   width="12cm"
   height="5.5cm"
   viewBox="0 0 120 55"
   version="1.1"
   id="svg1347"
   inkscape:version="1.2.2 (b0a8486541, 2022-12-01)"
   sodipodi:docname="arte-1.svg"
   inkscape:export-filename="logo-para-camisa.png"
   inkscape:export-xdpi="360"
   inkscape:export-ydpi="360"
   xmlns:inkscape="http://www.inkscape.org/namespaces/inkscape"
   xmlns:sodipodi="http://sodipodi.sourceforge.net/DTD/sodipodi-0.dtd"
   xmlns="http://www.w3.org/2000/svg"
   xmlns:svg="http://www.w3.org/2000/svg"
   xmlns:i="http://ns.adobe.com/AdobeIllustrator/10.0/">
  <sodipodi:namedview
     id="namedview1349"
     pagecolor="#ffffff"
     bordercolor="#000000"
     borderopacity="0.25"
     inkscape:showpageshadow="2"
     inkscape:pageopacity="0.0"
     inkscape:pagecheckerboard="0"
     inkscape:deskcolor="#d1d1d1"
     inkscape:document-units="mm"
     showgrid="false"
     inkscape:zoom="1.5358305"
     inkscape:cx="104.50372"
     inkscape:cy="97.015914"
     inkscape:window-width="1920"
     inkscape:window-height="1003"
     inkscape:window-x="1080"
     inkscape:window-y="0"
     inkscape:window-maximized="1"
     inkscape:current-layer="g10968" />
  <defs
     id="defs1344" />
  <g
     inkscape:label="Camada 1"
     inkscape:groupmode="layer"
     id="layer1">
    <g
       id="g10968"
       transform="matrix(0.16868188,0,0,0.16868188,-1.6976284,9.698139)">
      <g
         id="g374"
         transform="matrix(2.2883294,0,0,2.2883294,3.5846204,-135.96399)">
        <g
           id="g3002"
           transform="matrix(0.65944652,0,0,0.65944652,144.76839,51.07249)"
           style="overflow:visible">
          <g
             id="g4381">
            <path
               id="path9"
               d="m 60.969,47.645 c -1.494,0.02 0.281,0.768 2.232,1.069 0.541,-0.422 1.027,-0.846 1.463,-1.26 -1.213,0.297 -2.449,0.304 -3.695,0.191"
               i:knockout="Off"
               inkscape:connector-curvature="0"
               style="fill:#a80030" />
            <path
               id="path11"
               d="m 68.986,45.646 c 0.893,-1.229 1.541,-2.573 1.77,-3.963 -0.201,0.99 -0.736,1.845 -1.244,2.749 -2.793,1.759 -0.264,-1.044 -0.002,-2.111 -3.002,3.783 -0.414,2.268 -0.524,3.325"
               i:knockout="Off"
               inkscape:connector-curvature="0"
               style="fill:#a80030" />
            <path
               id="path13"
               d="m 71.949,37.942 c 0.182,-2.691 -0.529,-1.839 -0.768,-0.814 0.278,0.146 0.499,1.898 0.768,0.814"
               i:knockout="Off"
               inkscape:connector-curvature="0"
               style="fill:#a80030" />
            <path
               id="path15"
               d="m 55.301,1.163 c 0.798,0.142 1.724,0.252 1.591,0.443 0.876,-0.193 1.073,-0.367 -1.591,-0.443"
               i:knockout="Off"
               inkscape:connector-curvature="0"
               style="fill:#a80030" />
            <path
               id="path17"
               d="M 56.893,1.606 56.332,1.723 56.855,1.675 56.893,1.606"
               i:knockout="Off"
               inkscape:connector-curvature="0"
               style="fill:#a80030" />
            <path
               id="path19"
               d="m 81.762,38.962 c 0.09,2.416 -0.705,3.59 -1.424,5.666 l -1.293,0.643 c -1.057,2.054 0.105,1.304 -0.652,2.937 -1.652,1.467 -5.006,4.589 -6.08,4.875 -0.785,-0.017 0.531,-0.926 0.703,-1.281 -2.209,1.516 -1.773,2.276 -5.152,3.199 L 67.766,54.78 c -8.33,3.92 -19.902,-3.847 -19.75,-14.443 -0.088,0.672 -0.253,0.504 -0.437,0.774 -0.43,-5.451 2.518,-10.926 7.49,-13.165 4.863,-2.406 10.564,-1.42 14.045,1.829 -1.912,-2.506 -5.721,-5.163 -10.232,-4.917 -4.421,0.072 -8.558,2.881 -9.938,5.932 -2.264,1.425 -2.528,5.496 -3.514,6.242 -1.329,9.76 2.497,13.975 8.97,18.936 0.08624,0.287895 0.745288,0.942171 0.544,0.719 7.636,2.851 15.522,2.158 22.128,-3.137 1.682,-1.31 3.518,-3.537 4.049,-3.567 -0.799,1.202 0.137,0.578 -0.477,1.639 1.672,-2.701 -0.729,-1.1 1.73,-4.664 l 0.908,1.25 c -0.34,-2.244 2.785,-4.966 2.467,-8.512 0.717,-1.084 0.799,1.168 0.039,3.662 1.055,-2.767 0.279,-3.212 0.549,-5.496 0.291,0.768 0.678,1.583 0.875,2.394 -0.688,-2.675 0.703,-4.503 1.049,-6.058 -0.342,-0.15 -1.061,1.182 -1.227,-1.976 0.025,-1.372 0.383,-0.719 0.52,-1.057 -0.268,-0.155 -0.975,-1.207 -1.404,-3.224 0.309,-0.475 0.832,1.229 1.256,1.298 -0.273,-1.603 -0.742,-2.826 -0.762,-4.057 -1.24,-2.59 -0.439,0.346 -1.443,-1.112 -1.32,-4.114 1.094,-0.955 1.258,-2.823 1.998,2.895 3.137,7.385 3.662,9.244 -0.4,-2.267 -1.045,-4.464 -1.834,-6.589 0.609,0.257 -0.979,-4.663 0.791,-1.405 C 87.189,15.552 81,9.062 75.305,6.018 76,6.655 76.879,7.455 76.565,7.581 73.731,5.896 74.229,5.763 73.823,5.051 71.518,4.112 71.364,5.128 69.839,5.053 65.489,2.745 64.651,2.99 60.648,1.546 L 60.83,2.398 C 57.949,1.438 57.473,2.76 54.36,2.4 54.171,2.253 55.358,1.864 56.336,1.723 53.55,2.091 53.68,1.173 50.954,1.824 51.625,1.353 52.337,1.04 53.053,0.64 50.782,0.778 47.629,1.962 48.602,0.884 44.897,2.538 38.316,4.859 34.623,8.322 L 34.507,7.546 c -1.692,2.031 -7.379,6.066 -7.832,8.699 l -0.453,0.105 c -0.879,1.491 -1.45,3.18 -2.148,4.713 -1.151,1.963 -1.688,0.756 -1.524,1.064 -2.265,4.592 -3.392,8.45 -4.363,11.616 0.692,1.035 0.017,6.232 0.278,10.391 -1.136,20.544 14.418,40.489 31.42,45.093 2.492,0.893 6.197,0.861 9.349,0.949 -3.718,-1.064 -4.198,-0.563 -7.822,-1.826 -2.613,-1.232 -3.185,-2.637 -5.037,-4.244 l 0.733,1.295 c -3.63,-1.285 -2.111,-1.59 -5.065,-2.525 l 0.783,-1.021 c -1.177,-0.09 -3.117,-1.982 -3.647,-3.033 l -1.288,0.051 c -1.546,-1.906 -2.371,-3.283 -2.31,-4.35 l -0.416,0.742 c -0.471,-0.809 -5.691,-7.158 -2.983,-5.68 -0.503,-0.458 -1.172,-0.747 -1.897,-2.066 l 0.551,-0.629 c -1.301,-1.677 -2.398,-3.826 -2.314,-4.542 0.695,0.938 1.177,1.114 1.655,1.275 -3.291,-8.164 -3.476,-0.449 -5.967,-8.31 l 0.526,-0.042 c -0.403,-0.611 -0.65,-1.27 -0.974,-1.919 l 0.23,-2.285 c -2.368,-2.736 -0.662,-11.645 -0.319,-16.53 0.235,-1.986 1.977,-4.101 3.3,-7.418 l -0.806,-0.138 c 1.542,-2.688 8.802,-10.799 12.166,-10.383 1.629,-2.046 -0.324,-0.008 -0.643,-0.522 3.579,-3.703 4.704,-2.616 7.119,-3.283 2.603,-1.545 -2.235,0.604 -1.001,-0.589 4.503,-1.149 3.19,-2.614 9.063,-3.197 0.62,0.352 -1.437,0.544 -1.953,1.001 3.75,-1.836 11.869,-1.417 17.145,1.018 6.117,2.861 12.994,11.314 13.266,19.267 l 0.309,0.083 c -0.156,3.162 0.484,6.819 -0.627,10.177 l 0.751,-1.591"
               i:knockout="Off"
               inkscape:connector-curvature="0"
               style="fill:#a80030"
               sodipodi:nodetypes="cccccccccccccccccccccccccccccccccccccccccccccccccccccccccccccccccccccccccccccccccccccccccc" />
            <path
               id="path27"
               d="M 55.598,0.446 C 56.607,0.077 58.08,0.243 59.154,0 57.756,0.117 56.365,0.187 54.992,0.362 l 0.606,0.084"
               i:knockout="Off"
               inkscape:connector-curvature="0"
               style="fill:#a80030" />
          </g>
        </g>
        <path
           id="path1"
           style="fill:#000000;stroke:none;stroke-width:0.538416;stroke-linecap:round;stroke-dasharray:none;paint-order:markers stroke fill"
           d="m 180.67439,40.770058 c -26.55108,-0.298609 -44.20819,35.958526 -50.57442,47.97098 0,0 -8.02138,-12.392299 -20.52982,-12.614884 C 97.061725,75.903568 88.463065,84.218476 84.300062,90.138325 83.416645,87.66195 75.781951,77.020337 62.681791,76.657029 35.07678,75.891476 32.69884,104.35377 24.910053,118.00658 h 3.403096 C 35.841281,105.2458 37.89956,78.46647 60.897745,78.435509 77.372577,78.413338 83.117566,91.290774 83.117566,91.290774 l 2.758128,-0.09794 c 0,0 8.529357,-13.804088 23.563416,-12.981598 14.35304,0.785245 20.22904,12.841082 20.22904,12.841082 l 3.3683,-0.230654 c 0,0 19.53732,-46.297359 45.78768,-47.707491 31.49873,-1.692079 50.37381,49.397764 50.37381,49.397764 l 3.87831,-0.208117 c 0,0 6.0853,-13.237715 23.76541,-13.088994 9.15923,0.07703 16.43254,4.675901 20.2616,12.457397 5.67842,11.539817 9.25199,20.448497 11.72317,26.334337 h 2.42922 c -2.83357,-6.39434 -11.29162,-25.431936 -13.18911,-28.581909 -4.60065,-7.517984 -9.96098,-10.325632 -16.59033,-11.510013 -21.1299,-3.774986 -29.71101,12.781538 -29.71101,12.781538 0,0 -18.51133,-49.55972 -51.09081,-49.926125 z"
           sodipodi:nodetypes="scscsccsccsccsccsscccscs" />
        <g
           aria-label="Belo Horizonte 2024"
           id="text308-6"
           style="font-size:17.9995px;fill:#a80030;stroke-width:0.964251;paint-order:stroke fill markers">
          <path
             d="m 76.483424,168.83427 h 3.445217 q 1.291956,0 2.170838,-0.78221 0.878882,-0.7822 0.878882,-1.84565 0,-1.06345 -0.878882,-1.83686 -0.878882,-0.77342 -2.170838,-0.77342 h -3.445217 z m 5.510589,-8.46364 v -0.0176 q 0,-0.76463 -0.650372,-1.34469 -0.641584,-0.58885 -1.581988,-0.58885 h -3.278229 v 3.84071 h 3.278229 q 0.957981,0 1.590776,-0.56248 0.641584,-0.57128 0.641584,-1.32712 z m -2.179627,-3.30459 q 1.476522,0 2.53118,0.97556 1.063447,0.96677 1.063447,2.32903 0,0.72069 -0.325186,1.36227 -0.325187,0.6328 -0.89646,1.08103 1.001925,0.50975 1.590776,1.415 0.59764,0.89645 0.59764,1.97748 0,1.0986 -0.615217,2.02143 -0.606429,0.92282 -1.625932,1.44136 -1.019503,0.51854 -2.205993,0.51854 h -4.842639 v -13.1217 z"
             style="font-weight:bold;font-family:Sawasdee;-inkscape-font-specification:'Sawasdee Bold'"
             id="path430" />
          <path
             d="m 87.59249,164.7211 h 5.5809 q -0.281242,-1.00193 -1.063447,-1.62593 -0.773416,-0.62401 -1.722608,-0.62401 -0.931615,0 -1.71382,0.62401 -0.773416,0.624 -1.081025,1.62593 z m -0.158198,1.30074 q 0.105465,1.26559 0.957981,2.10932 0.852515,0.83494 1.959906,0.83494 0.870093,0 1.617143,-0.43944 0.74705,-0.44823 1.256801,-1.30954 l 1.195279,0.64159 q -0.342764,0.60643 -0.799782,1.07223 -0.457019,0.45702 -0.887671,0.7119 -0.430652,0.25487 -0.905248,0.41307 -0.474596,0.1582 -0.81736,0.20214 -0.333975,0.0439 -0.659162,0.0439 -1.195279,0 -2.188415,-0.62401 -0.993137,-0.624 -1.555621,-1.66987 -0.553696,-1.05466 -0.553696,-2.2851 0,-1.22164 0.571273,-2.26751 0.571274,-1.05466 1.573199,-1.68745 1.001925,-0.6328 2.188416,-0.6328 1.133757,0 2.091738,0.57127 0.957982,0.57128 1.538044,1.53805 0.580062,0.95798 0.676739,2.10053 l 0.03516,0.67673 z"
             style="font-weight:bold;font-family:Sawasdee;-inkscape-font-specification:'Sawasdee Bold'"
             id="path432" />
          <path
             d="m 98.244538,170.18774 h -1.397422 v -13.1217 h 1.397422 z"
             style="font-weight:bold;font-family:Sawasdee;-inkscape-font-specification:'Sawasdee Bold'"
             id="path434" />
          <path
             d="m 109.23935,163.42035 q 0.64158,1.05466 0.64158,2.30267 0,1.24802 -0.64158,2.30267 -0.64158,1.05466 -1.74019,1.66988 -1.0986,0.60643 -2.39055,0.60643 -1.30075,0 -2.40814,-0.60643 -1.0986,-0.61522 -1.74019,-1.66988 -0.64158,-1.05465 -0.64158,-2.30267 0,-1.24801 0.64158,-2.30267 0.64159,-1.06344 1.74019,-1.66987 1.10739,-0.61522 2.40814,-0.61522 1.29195,0 2.39055,0.61522 1.09861,0.60643 1.74019,1.66987 z m -7.51444,2.30267 q 0,1.36227 0.99314,2.31146 0.99313,0.9492 2.40813,0.9492 1.415,0 2.41693,-0.9492 1.00192,-0.95798 1.00192,-2.31146 0,-1.34468 -1.00192,-2.29388 -1.00193,-0.95798 -2.41693,-0.95798 -1.415,0 -2.40813,0.95798 -0.99314,0.9492 -0.99314,2.29388 z"
             style="font-weight:bold;font-family:Sawasdee;-inkscape-font-specification:'Sawasdee Bold'"
             id="path436" />
          <path
             d="m 126.79062,157.06604 h 1.39742 v 13.1217 h -1.39742 v -6.89043 h -6.98711 v 6.89043 h -1.39742 v -13.1217 h 1.39742 v 4.87779 h 6.98711 z"
             style="font-weight:bold;font-family:Sawasdee;-inkscape-font-specification:'Sawasdee Bold'"
             id="path438" />
          <path
             d="m 139.17407,163.42035 q 0.64158,1.05466 0.64158,2.30267 0,1.24802 -0.64158,2.30267 -0.64159,1.05466 -1.74019,1.66988 -1.0986,0.60643 -2.39056,0.60643 -1.30074,0 -2.40813,-0.60643 -1.09861,-0.61522 -1.74019,-1.66988 -0.64158,-1.05465 -0.64158,-2.30267 0,-1.24801 0.64158,-2.30267 0.64158,-1.06344 1.74019,-1.66987 1.10739,-0.61522 2.40813,-0.61522 1.29196,0 2.39056,0.61522 1.0986,0.60643 1.74019,1.66987 z m -7.51444,2.30267 q 0,1.36227 0.99313,2.31146 0.99314,0.9492 2.40814,0.9492 1.415,0 2.41693,-0.9492 1.00192,-0.95798 1.00192,-2.31146 0,-1.34468 -1.00192,-2.29388 -1.00193,-0.95798 -2.41693,-0.95798 -1.415,0 -2.40814,0.95798 -0.99313,0.9492 -0.99313,2.29388 z"
             style="font-weight:bold;font-family:Sawasdee;-inkscape-font-specification:'Sawasdee Bold'"
             id="path440" />
          <path
             d="m 143.28723,162.58542 q 0.94041,-1.05466 2.15327,-1.48531 l 1.74897,1.22164 q -0.75584,0 -1.37106,0.1582 -0.61521,0.14941 -1.01071,0.38671 -0.3955,0.22851 -0.69432,0.55369 -0.29882,0.32519 -0.44823,0.62401 -0.14941,0.29882 -0.24608,0.64158 -0.0879,0.33398 -0.11426,0.53612 -0.0176,0.20214 -0.0176,0.38671 v 4.57897 h -1.37105 v -6.29279 q 0,-0.65916 -0.12304,-1.4941 -0.11426,-0.83494 -0.27246,-1.14255 h 1.53805 q 0.2285,0.62401 0.2285,1.32712 z"
             style="font-weight:bold;font-family:Sawasdee;-inkscape-font-specification:'Sawasdee Bold'"
             id="path442" />
          <path
             d="m 149.08785,158.36678 q 0.41308,0 0.70311,0.28125 0.29882,0.28124 0.29882,0.68552 0,0.3955 -0.29882,0.66795 -0.29003,0.27246 -0.70311,0.27246 -0.43065,0 -0.72068,-0.27246 -0.29003,-0.27245 -0.29003,-0.66795 0,-0.40428 0.29003,-0.68552 0.29882,-0.28125 0.72068,-0.28125 z m 0.67674,11.82096 h -1.38863 v -8.91186 h 1.38863 z"
             style="font-weight:bold;font-family:Sawasdee;-inkscape-font-specification:'Sawasdee Bold'"
             id="path444" />
          <path
             d="m 152.60338,161.2583 h 6.81133 l -5.58969,7.61112 h 5.38755 l -0.45702,1.31832 h -7.56717 l 5.59848,-7.60232 h -4.6405 z"
             style="font-weight:bold;font-family:Sawasdee;-inkscape-font-specification:'Sawasdee Bold'"
             id="path446" />
          <path
             d="m 169.36366,163.42035 q 0.64158,1.05466 0.64158,2.30267 0,1.24802 -0.64158,2.30267 -0.64159,1.05466 -1.74019,1.66988 -1.0986,0.60643 -2.39056,0.60643 -1.30074,0 -2.40813,-0.60643 -1.09861,-0.61522 -1.74019,-1.66988 -0.64158,-1.05465 -0.64158,-2.30267 0,-1.24801 0.64158,-2.30267 0.64158,-1.06344 1.74019,-1.66987 1.10739,-0.61522 2.40813,-0.61522 1.29196,0 2.39056,0.61522 1.0986,0.60643 1.74019,1.66987 z m -7.51444,2.30267 q 0,1.36227 0.99313,2.31146 0.99314,0.9492 2.40814,0.9492 1.415,0 2.41693,-0.9492 1.00192,-0.95798 1.00192,-2.31146 0,-1.34468 -1.00192,-2.29388 -1.00193,-0.95798 -2.41693,-0.95798 -1.415,0 -2.40814,0.95798 -0.99313,0.9492 -0.99313,2.29388 z"
             style="font-weight:bold;font-family:Sawasdee;-inkscape-font-specification:'Sawasdee Bold'"
             id="path448" />
          <path
             d="m 173.24832,161.2583 q 0.14941,0.48339 0.18456,0.77342 0.0439,0.29003 0.0439,0.94919 0.50096,-0.75584 1.23922,-1.30074 0.73826,-0.54491 1.42379,-0.54491 0.73826,0 1.31832,0.29882 0.58006,0.29003 0.93161,0.79978 0.35156,0.50975 0.52733,1.15134 0.17578,0.63279 0.17578,1.35348 v 5.44906 h -1.39742 v -5.44906 q 0,-0.40429 -0.0791,-0.77342 -0.0703,-0.36913 -0.2373,-0.72068 -0.16699,-0.36034 -0.49217,-0.57128 -0.32519,-0.21972 -0.78221,-0.21972 -0.57127,0 -1.20407,0.59764 -0.63279,0.58885 -1.02829,1.36227 -0.39549,0.76463 -0.39549,1.30953 v 4.46472 h -1.38864 v -6.29279 q 0,-0.67674 -0.11425,-1.50289 -0.10547,-0.83494 -0.28124,-1.13376 z"
             style="font-weight:bold;font-family:Sawasdee;-inkscape-font-specification:'Sawasdee Bold'"
             id="path450" />
          <path
             d="m 182.97753,170.17017 h -1.39742 v -7.58475 h -0.76463 v -1.30954 h 0.76463 v -1.96869 h 1.39742 v 1.96869 h 2.53997 l -0.4658,1.30954 h -2.07417 z"
             style="font-weight:bold;font-family:Sawasdee;-inkscape-font-specification:'Sawasdee Bold'"
             id="path452" />
          <path
             d="m 187.86412,164.7211 h 5.5809 q -0.28124,-1.00193 -1.06344,-1.62593 -0.77342,-0.62401 -1.72261,-0.62401 -0.93162,0 -1.71382,0.62401 -0.77342,0.624 -1.08103,1.62593 z m -0.1582,1.30074 q 0.10547,1.26559 0.95799,2.10932 0.85251,0.83494 1.9599,0.83494 0.87009,0 1.61714,-0.43944 0.74705,-0.44823 1.25681,-1.30954 l 1.19527,0.64159 q -0.34276,0.60643 -0.79978,1.07223 -0.45702,0.45702 -0.88767,0.7119 -0.43065,0.25487 -0.90525,0.41307 -0.47459,0.1582 -0.81736,0.20214 -0.33397,0.0439 -0.65916,0.0439 -1.19528,0 -2.18841,-0.62401 -0.99314,-0.624 -1.55563,-1.66987 -0.55369,-1.05466 -0.55369,-2.2851 0,-1.22164 0.57127,-2.26751 0.57128,-1.05466 1.5732,-1.68745 1.00193,-0.6328 2.18842,-0.6328 1.13375,0 2.09174,0.57127 0.95798,0.57128 1.53804,1.53805 0.58006,0.95798 0.67674,2.10053 l 0.0352,0.67673 z"
             style="font-weight:bold;font-family:Sawasdee;-inkscape-font-specification:'Sawasdee Bold'"
             id="path454" />
          <path
             d="m 211.95427,170.18774 h -8.99096 v -0.65037 q 0,-0.72068 0.24608,-1.36227 0.24609,-0.64158 0.66795,-1.13375 0.42187,-0.50097 0.95799,-0.9492 0.5449,-0.45701 1.14254,-0.83493 0.60643,-0.38671 1.20407,-0.74705 0.59764,-0.36913 1.13376,-0.73826 0.5449,-0.36913 0.96677,-0.74705 0.42186,-0.38671 0.66795,-0.84373 0.24608,-0.46581 0.24608,-0.96677 0,-1.23043 -0.79099,-2.07416 -0.7822,-0.85252 -1.84565,-0.85252 -1.0986,0 -1.8896,0.84373 -0.79099,0.84373 -0.79099,2.08295 v 0.3164 h -1.38863 v -0.3164 q 0,-1.15133 0.52732,-2.12689 0.53612,-0.97556 1.46774,-1.55562 0.9404,-0.58007 2.05658,-0.58007 1.10739,0 2.03901,0.58007 0.93161,0.58006 1.45894,1.56441 0.53612,0.97555 0.53612,2.1181 0,0.79099 -0.35155,1.48531 -0.35156,0.69432 -0.92283,1.22165 -0.57127,0.51854 -1.27438,1.00192 -0.7031,0.4746 -1.44136,0.92283 -0.73827,0.44823 -1.37985,0.88767 -0.64158,0.43065 -1.13376,0.97556 -0.49217,0.5449 -0.65916,1.12497 h 7.54081 z"
             style="font-weight:bold;font-family:Sawasdee;-inkscape-font-specification:'Sawasdee Bold'"
             id="path456" />
          <path
             d="m 217.88672,170.302 q -1.3359,0 -2.39935,-0.9404 -1.06345,-0.9492 -1.62593,-2.46087 -0.5537,-1.51168 -0.5537,-3.26066 0,-1.30074 0.33398,-2.5136 0.33397,-1.21285 0.91404,-2.13568 0.58885,-0.92283 1.45894,-1.47652 0.87009,-0.56249 1.87202,-0.56249 1.31832,0 2.37298,0.9492 1.06345,0.94919 1.62593,2.46965 0.56248,1.52047 0.56248,3.26944 0,1.30075 -0.33397,2.51361 -0.33398,1.20406 -0.92283,2.12689 -0.58006,0.91404 -1.45015,1.46773 -0.86131,0.5537 -1.85444,0.5537 z m -3.19034,-6.66193 q 0,0.94041 0.18456,1.79292 0.18457,0.84373 0.50096,1.47652 0.3164,0.6328 0.72069,1.1074 0.41307,0.4658 0.87009,0.71189 0.45702,0.2373 0.91404,0.2373 0.43944,0 0.88767,-0.2373 0.45702,-0.2373 0.87009,-0.70311 0.41308,-0.4658 0.72947,-1.0986 0.32519,-0.63279 0.50975,-1.48531 0.19336,-0.85251 0.19336,-1.80171 0,-1.16891 -0.29003,-2.18841 -0.29003,-1.02829 -0.75584,-1.69624 -0.45702,-0.67674 -1.0195,-1.06345 -0.56249,-0.38671 -1.12497,-0.38671 -0.56249,0 -1.12497,0.38671 -0.56249,0.37792 -1.02829,1.04587 -0.45702,0.66795 -0.74705,1.69624 -0.29003,1.02829 -0.29003,2.20599 z"
             style="font-weight:bold;font-family:Sawasdee;-inkscape-font-specification:'Sawasdee Bold'"
             id="path458" />
          <path
             d="m 232.66073,170.18774 h -8.99096 v -0.65037 q 0,-0.72068 0.24609,-1.36227 0.24609,-0.64158 0.66795,-1.13375 0.42186,-0.50097 0.95798,-0.9492 0.54491,-0.45701 1.14255,-0.83493 0.60643,-0.38671 1.20407,-0.74705 0.59764,-0.36913 1.13375,-0.73826 0.54491,-0.36913 0.96677,-0.74705 0.42187,-0.38671 0.66795,-0.84373 0.24609,-0.46581 0.24609,-0.96677 0,-1.23043 -0.79099,-2.07416 -0.78221,-0.85252 -1.84565,-0.85252 -1.09861,0 -1.8896,0.84373 -0.79099,0.84373 -0.79099,2.08295 v 0.3164 h -1.38864 v -0.3164 q 0,-1.15133 0.52733,-2.12689 0.53612,-0.97556 1.46773,-1.55562 0.94041,-0.58007 2.05659,-0.58007 1.10739,0 2.039,0.58007 0.93162,0.58006 1.45895,1.56441 0.53612,0.97555 0.53612,2.1181 0,0.79099 -0.35156,1.48531 -0.35155,0.69432 -0.92282,1.22165 -0.57128,0.51854 -1.27438,1.00192 -0.70311,0.4746 -1.44137,0.92283 -0.73826,0.44823 -1.37984,0.88767 -0.64159,0.43065 -1.13376,0.97556 -0.49217,0.5449 -0.65916,1.12497 h 7.5408 z"
             style="font-weight:bold;font-family:Sawasdee;-inkscape-font-specification:'Sawasdee Bold'"
             id="path460" />
          <path
             d="m 240.39489,166.48765 v -6.13459 l -4.7899,6.13459 z m 1.38864,3.68252 h -1.38864 v -2.32904 h -7.58475 l 8.97339,-11.52214 v 10.16866 h 1.52925 l -0.45702,1.35348 h -1.07223 z"
             style="font-weight:bold;font-family:Sawasdee;-inkscape-font-specification:'Sawasdee Bold'"
             id="path462" />
        </g>
        <g
           aria-label="MiniDebConf"
           id="text308-6-6"
           style="font-size:39.6833px;stroke-width:2.12587;paint-order:stroke fill markers">
          <path
             d="m 61.406438,131.89735 7.420777,-13.84947 v 21.90518 h 4.166746 v -28.25451 h -4.722312 l -8.53191,16.19079 -9.047792,-16.19079 h -4.642946 v 28.25451 h 4.166746 v -21.54803 l 7.500144,13.49232 z"
             style="font-family:Prometo;-inkscape-font-specification:Prometo"
             id="path407" />
          <path
             d="m 78.15279,139.95306 h 4.166746 V 119.4368 H 78.15279 Z m 4.682629,-26.58781 c 0,-1.86511 -0.753983,-2.61909 -2.619098,-2.61909 -1.865115,0 -2.619098,0.75398 -2.619098,2.61909 0,1.86512 0.753983,2.6191 2.619098,2.6191 1.865115,0 2.619098,-0.75398 2.619098,-2.6191 z"
             style="font-family:Prometo;-inkscape-font-specification:Prometo"
             id="path409" />
          <path
             d="m 91.089571,139.95306 v -13.65105 c 0,-2.65878 0.277783,-4.0477 4.920729,-4.0477 4.64295,0 4.92073,1.38892 4.92073,4.0477 v 13.65105 h 4.16675 v -14.4844 c 0,-4.762 -2.8572,-6.66679 -9.08748,-6.66679 -6.230278,0 -9.087476,1.90479 -9.087476,6.66679 v 14.4844 z"
             style="font-family:Prometo;-inkscape-font-specification:Prometo"
             id="path411" />
          <path
             d="m 109.70101,139.95306 h 4.16675 V 119.4368 h -4.16675 z m 4.68263,-26.58781 c 0,-1.86511 -0.75398,-2.61909 -2.61909,-2.61909 -1.86512,0 -2.6191,0.75398 -2.6191,2.61909 0,1.86512 0.75398,2.6191 2.6191,2.6191 1.86511,0 2.61909,-0.75398 2.61909,-2.6191 z"
             style="font-family:Prometo;-inkscape-font-specification:Prometo"
             id="path413" />
          <path
             d="m 119.02662,139.95306 h 10.23829 c 9.40494,0 12.18277,-4.20643 12.18277,-12.53992 v -3.21435 c 0,-8.25412 -2.77783,-12.50024 -12.18277,-12.50024 h -10.23829 z m 4.16674,-24.52428 h 6.07155 c 5.75408,0 7.81761,1.46829 7.81761,9.0478 v 2.65878 c 0,7.53983 -2.06353,9.08747 -7.81761,9.08747 h -6.07155 z"
             style="font-family:Prometo;-inkscape-font-specification:Prometo"
             id="path415" />
          <path
             d="m 160.37662,131.22274 c 2.02385,0 2.8572,-0.51588 2.8572,-4.2858 v -0.59525 c 0,-3.96833 -1.58733,-7.53982 -8.69064,-7.53982 -7.69856,0 -9.28589,3.69054 -9.28589,9.7224 v 2.22227 c 0,5.63503 1.58733,9.28589 9.08747,9.28589 2.42068,0 3.49213,0.0397 6.78585,-0.0794 l 0.7143,-3.45244 c -3.76992,0.11905 -5.9525,0.0794 -7.50015,0.0794 -4.20643,0 -4.92073,-0.9524 -4.92073,-5.35724 z m -6.03186,-9.12716 c 3.92865,0 4.96041,1.03176 4.96041,4.56358 v 1.34923 h -9.88114 c 0,-4.88105 0.7143,-5.91281 4.92073,-5.91281 z"
             style="font-family:Prometo;-inkscape-font-specification:Prometo"
             id="path417" />
          <path
             d="m 176.88485,122.21463 c 4.12706,0 5.19851,0.87303 5.19851,6.58743 v 1.98416 c 0,5.7144 -1.1905,6.38901 -5.31756,6.38901 -4.44453,0 -5.31756,-0.83335 -5.31756,-6.38901 v -2.97625 c 0,-4.48421 0.91271,-5.59534 5.43661,-5.59534 z m 0.39683,-3.41276 c -2.97625,0 -4.60326,0.55556 -5.83344,1.62701 v -9.96051 h -4.16675 v 20.31785 c 0,7.50015 2.81751,9.80178 9.32558,9.80178 7.77792,0 9.7224,-3.21435 9.7224,-9.80178 v -2.22226 c 0,-6.46838 -2.10321,-9.76209 -9.04779,-9.76209 z"
             style="font-family:Prometo;-inkscape-font-specification:Prometo"
             id="path419" />
          <path
             d="m 194.50422,124.35753 c 0,-7.73825 1.1905,-9.00811 7.34141,-9.00811 1.94448,0 4.92073,0.0794 6.54774,0.0794 l 0.75399,-3.73023 c -3.17467,-0.11905 -5.31756,-0.0794 -7.22236,-0.0794 -8.73033,0 -11.78594,3.01593 -11.78594,12.73834 v 2.89688 c 0,9.32557 2.69846,12.77802 11.82562,12.77802 1.15082,0 3.8096,0.0397 6.66679,-0.0794 l 0.75399,-3.73023 c -3.3334,0.11905 -5.39693,0.0794 -7.42078,0.0794 -6.03186,0 -7.46046,-1.54765 -7.46046,-9.04779 z"
             style="font-family:Prometo;-inkscape-font-specification:Prometo"
             id="path421" />
          <path
             d="m 221.56825,118.80187 c -6.82553,0 -9.56368,2.18258 -9.56368,9.80177 v 2.18258 c 0,7.6192 2.73815,9.80178 9.56368,9.80178 6.82552,0 9.56367,-2.18258 9.56367,-9.80178 v -2.18258 c 0,-7.61919 -2.73815,-9.80177 -9.56367,-9.80177 z m 5.31756,11.98435 c 0,5.55566 -0.91272,6.38901 -5.31756,6.38901 -4.40485,0 -5.31757,-0.83335 -5.31757,-6.38901 v -2.18258 c 0,-5.55566 0.91272,-6.38901 5.31757,-6.38901 4.40484,0 5.31756,0.83335 5.31756,6.38901 z"
             style="font-family:Prometo;-inkscape-font-specification:Prometo"
             id="path423" />
          <path
             d="m 239.42571,139.95306 v -13.65105 c 0,-2.65878 0.27779,-4.0477 4.92073,-4.0477 4.64295,0 4.92073,1.38892 4.92073,4.0477 v 13.65105 h 4.16675 v -14.4844 c 0,-4.762 -2.8572,-6.66679 -9.08748,-6.66679 -6.23027,0 -9.08747,1.90479 -9.08747,6.66679 v 14.4844 z"
             style="font-family:Prometo;-inkscape-font-specification:Prometo"
             id="path425" />
          <path
             d="m 267.68019,113.84145 c 0.79367,0 2.30163,0.0397 3.29372,0.0794 l 0.7143,-3.45245 c -1.30955,-0.0397 -3.3334,-0.0794 -4.56358,-0.0794 -6.86521,0 -9.08748,2.50004 -9.08748,9.2462 v 20.31785 h 4.16675 v -17.06382 h 7.06362 l 0.7143,-3.45244 h -7.77792 c 0,-4.762 0.91271,-5.59535 5.47629,-5.59535 z"
             style="font-family:Prometo;-inkscape-font-specification:Prometo"
             id="path427" />
        </g>
        <g
           id="g19"
           style="fill:#a80030;fill-opacity:1"
           transform="matrix(0.53841674,0,0,0.53841674,-267.77926,-138.96458)">
          <path
             id="rect5"
             style="stroke-width:0.652976;stroke-linecap:round;paint-order:markers stroke fill"
             d="m 791.17444,533.24365 h 247.82246 v 2.39645 H 791.17444 Z" />
          <path
             id="rect18"
             style="stroke-width:0.652976;stroke-linecap:round;paint-order:markers stroke fill"
             transform="scale(-1)"
             d="m -792.75507,-535.64014 h 247.82244 v 2.39645 h -247.82244 z" />
        </g>
      </g>
    </g>
  </g>
</svg>
